-- Merging decision tree log ---
provider#nl.xservices.plugins.FileProvider
INJECTED from D:\Desarrollos2018\cmex-voluntariados-app\platforms\android\app\src\main\AndroidManifest.xml:29:9-31:20
	android:grantUriPermissions
		ADDED from D:\Desarrollos2018\cmex-voluntariados-app\platforms\android\app\src\main\AndroidManifest.xml:29:100-134
	android:authorities
		INJECTED from D:\Desarrollos2018\cmex-voluntariados-app\platforms\android\app\src\main\AndroidManifest.xml
		ADDED from D:\Desarrollos2018\cmex-voluntariados-app\platforms\android\app\src\main\AndroidManifest.xml:29:19-74
	android:exported
		ADDED from D:\Desarrollos2018\cmex-voluntariados-app\platforms\android\app\src\main\AndroidManifest.xml:29:75-99
	android:name
		ADDED from D:\Desarrollos2018\cmex-voluntariados-app\platforms\android\app\src\main\AndroidManifest.xml:29:135-183
provider#org.apache.cordova.camera.FileProvider
INJECTED from D:\Desarrollos2018\cmex-voluntariados-app\platforms\android\app\src\main\AndroidManifest.xml:32:9-34:20
	android:grantUriPermissions
		ADDED from D:\Desarrollos2018\cmex-voluntariados-app\platforms\android\app\src\main\AndroidManifest.xml:32:92-126
	android:authorities
		INJECTED from D:\Desarrollos2018\cmex-voluntariados-app\platforms\android\app\src\main\AndroidManifest.xml
		ADDED from D:\Desarrollos2018\cmex-voluntariados-app\platforms\android\app\src\main\AndroidManifest.xml:32:19-66
	android:exported
		ADDED from D:\Desarrollos2018\cmex-voluntariados-app\platforms\android\app\src\main\AndroidManifest.xml:32:67-91
	android:name
		ADDED from D:\Desarrollos2018\cmex-voluntariados-app\platforms\android\app\src\main\AndroidManifest.xml:32:127-180
manifest
ADDED from D:\Desarrollos2018\cmex-voluntariados-app\platforms\android\app\src\main\AndroidManifest.xml:2:1-40:12
INJECTED from D:\Desarrollos2018\cmex-voluntariados-app\platforms\android\app\src\main\AndroidManifest.xml:2:1-40:12
INJECTED from D:\Desarrollos2018\cmex-voluntariados-app\platforms\android\app\src\main\AndroidManifest.xml:2:1-40:12
INJECTED from D:\Desarrollos2018\cmex-voluntariados-app\platforms\android\app\src\main\AndroidManifest.xml:2:1-40:12
MERGED from [me.leolin:ShortcutBadger:1.1.4] C:\Users\user\.gradle\caches\transforms-1\files-1.1\ShortcutBadger-1.1.4.aar\c2d0e2423cff09ce9f1145a8287bb052\AndroidManifest.xml:2:1-35:12
MERGED from [com.google.firebase:firebase-auth:16.0.5] C:\Users\user\.gradle\caches\transforms-1\files-1.1\firebase-auth-16.0.5.aar\6a65c2dbcaac7729374ad3eda97731b7\AndroidManifest.xml:17:1-42:12
MERGED from [com.crashlytics.sdk.android:crashlytics:2.9.1] C:\Users\user\.gradle\caches\transforms-1\files-1.1\crashlytics-2.9.1.aar\8668cf8785b86b5d790990dba23fa740\AndroidManifest.xml:2:1-19:12
MERGED from [com.google.android.gms:play-services-tagmanager:16.0.5] C:\Users\user\.gradle\caches\transforms-1\files-1.1\play-services-tagmanager-16.0.5.aar\82c443eb7a05bb2dd1a3ff76fcbcb812\AndroidManifest.xml:17:1-22:12
MERGED from [com.google.firebase:firebase-core:16.0.5] C:\Users\user\.gradle\caches\transforms-1\files-1.1\firebase-core-16.0.5.aar\abbdd2778103732ed59f0ded5230abf1\AndroidManifest.xml:2:1-9:12
MERGED from [com.google.firebase:firebase-messaging:17.3.4] C:\Users\user\.gradle\caches\transforms-1\files-1.1\firebase-messaging-17.3.4.aar\02e603b24960c0f80c35406d63a0b20f\AndroidManifest.xml:17:1-37:12
MERGED from [com.google.firebase:firebase-perf:16.2.1] C:\Users\user\.gradle\caches\transforms-1\files-1.1\firebase-perf-16.2.1.aar\bee5f54b0eac5a2fa1f8af9ce474d2b3\AndroidManifest.xml:17:1-41:12
MERGED from [com.google.firebase:firebase-config:16.1.0] C:\Users\user\.gradle\caches\transforms-1\files-1.1\firebase-config-16.1.0.aar\99e3cf75c1237e8e7c4d5cfc7e6816e1\AndroidManifest.xml:17:1-24:12
MERGED from [com.google.android.gms:play-services-flags:16.0.1] C:\Users\user\.gradle\caches\transforms-1\files-1.1\play-services-flags-16.0.1.aar\14e4685c522d2fbe11957f7001b778d5\AndroidManifest.xml:17:1-22:12
MERGED from [com.google.firebase:firebase-auth-interop:16.0.1] C:\Users\user\.gradle\caches\transforms-1\files-1.1\firebase-auth-interop-16.0.1.aar\5318a0e3802925cdf5461a909567c24a\AndroidManifest.xml:2:1-10:12
MERGED from [com.google.android.gms:play-services-analytics-impl:16.0.5] C:\Users\user\.gradle\caches\transforms-1\files-1.1\play-services-analytics-impl-16.0.5.aar\e17dc41e1d429e76fe0b9d8050aeb69a\AndroidManifest.xml:17:1-31:12
MERGED from [com.google.android.gms:play-services-clearcut:16.0.0] C:\Users\user\.gradle\caches\transforms-1\files-1.1\play-services-clearcut-16.0.0.aar\af6a0c952227e4025925f08c64e9001d\AndroidManifest.xml:17:1-24:12
MERGED from [com.google.android.gms:play-services-phenotype:16.0.0] C:\Users\user\.gradle\caches\transforms-1\files-1.1\play-services-phenotype-16.0.0.aar\328e0b085fdb1a67c374bd28e7d4be67\AndroidManifest.xml:17:1-24:12
MERGED from [com.google.firebase:firebase-measurement-connector-impl:17.0.3] C:\Users\user\.gradle\caches\transforms-1\files-1.1\firebase-measurement-connector-impl-17.0.3.aar\525989c29bcf9fae2b82b442f8de3d39\AndroidManifest.xml:17:1-34:12
MERGED from [com.google.android.gms:play-services-tagmanager-api:16.0.5] C:\Users\user\.gradle\caches\transforms-1\files-1.1\play-services-tagmanager-api-16.0.5.aar\6ae2a2eaa9c22c62dd2edef9da1423d5\AndroidManifest.xml:17:1-47:12
MERGED from [com.google.firebase:firebase-analytics:16.0.5] C:\Users\user\.gradle\caches\transforms-1\files-1.1\firebase-analytics-16.0.5.aar\3236af78c5211b01373853356a5a85f9\AndroidManifest.xml:17:1-55:12
MERGED from [com.google.android.gms:play-services-measurement-api:16.0.3] C:\Users\user\.gradle\caches\transforms-1\files-1.1\play-services-measurement-api-16.0.3.aar\8666fe9d6f7740ea5850bfd7a305b7ad\AndroidManifest.xml:17:1-25:12
MERGED from [com.google.firebase:firebase-abt:16.0.1] C:\Users\user\.gradle\caches\transforms-1\files-1.1\firebase-abt-16.0.1.aar\9bcf578a60104d8305333c3d38041097\AndroidManifest.xml:2:1-7:12
MERGED from [com.google.firebase:firebase-analytics-impl:16.2.3] C:\Users\user\.gradle\caches\transforms-1\files-1.1\firebase-analytics-impl-16.2.3.aar\dd01fbcba4b0ae3501e18b2fea8caba1\AndroidManifest.xml:17:1-40:12
MERGED from [com.google.firebase:firebase-iid:17.0.4] C:\Users\user\.gradle\caches\transforms-1\files-1.1\firebase-iid-17.0.4.aar\ccc24ca30d78d8c9771d246b1ee57807\AndroidManifest.xml:17:1-59:12
MERGED from [com.google.firebase:firebase-iid-interop:16.0.1] C:\Users\user\.gradle\caches\transforms-1\files-1.1\firebase-iid-interop-16.0.1.aar\9ed5c05640721475d66fe01704fac28a\AndroidManifest.xml:2:1-10:12
MERGED from [com.google.android.gms:play-services-base:16.0.1] C:\Users\user\.gradle\caches\transforms-1\files-1.1\play-services-base-16.0.1.aar\3f0d613d5baf263b8cfc1794013f2b4a\AndroidManifest.xml:17:1-29:12
MERGED from [com.google.firebase:firebase-common:16.0.3] C:\Users\user\.gradle\caches\transforms-1\files-1.1\firebase-common-16.0.3.aar\4551ec3546594dd8d1c4753b29872788\AndroidManifest.xml:2:1-17:12
MERGED from [com.google.android.gms:play-services-tasks:16.0.1] C:\Users\user\.gradle\caches\transforms-1\files-1.1\play-services-tasks-16.0.1.aar\df67dd3b429a5e83d7f6f8b5aa28af27\AndroidManifest.xml:2:1-9:12
MERGED from [com.google.android.gms:play-services-ads-identifier:16.0.0] C:\Users\user\.gradle\caches\transforms-1\files-1.1\play-services-ads-identifier-16.0.0.aar\a2006fe1e3291a77c0d408251b2d90b0\AndroidManifest.xml:17:1-24:12
MERGED from [com.google.android.gms:play-services-measurement-base:16.0.4] C:\Users\user\.gradle\caches\transforms-1\files-1.1\play-services-measurement-base-16.0.4.aar\72adf61211965b1e525c5db484df2e45\AndroidManifest.xml:2:1-9:12
MERGED from [com.google.android.gms:play-services-stats:16.0.1] C:\Users\user\.gradle\caches\transforms-1\files-1.1\play-services-stats-16.0.1.aar\f312581797eb8f8acf261be8f15828f9\AndroidManifest.xml:2:1-9:12
MERGED from [com.google.firebase:firebase-measurement-connector:17.0.1] C:\Users\user\.gradle\caches\transforms-1\files-1.1\firebase-measurement-connector-17.0.1.aar\0015823e0ab2d8b9d940e7babbd6a417\AndroidManifest.xml:17:1-25:12
MERGED from [com.google.android.gms:play-services-basement:16.1.0] C:\Users\user\.gradle\caches\transforms-1\files-1.1\play-services-basement-16.1.0.aar\5994aab45f01c7ef89f8302f5c4ab412\AndroidManifest.xml:17:1-28:12
MERGED from [com.android.support:support-v4:26.1.0] C:\Users\user\.gradle\caches\transforms-1\files-1.1\support-v4-26.1.0.aar\897c9d690feb9ddd4fe2d5216f4c8d83\AndroidManifest.xml:17:1-31:12
MERGED from [:CordovaLib] D:\Desarrollos2018\cmex-voluntariados-app\platforms\android\CordovaLib\build\intermediates\manifests\full\debug\AndroidManifest.xml:20:1-27:12
MERGED from [com.crashlytics.sdk.android:beta:1.2.7] C:\Users\user\.gradle\caches\transforms-1\files-1.1\beta-1.2.7.aar\63c94eb7b9e4edbecef0dc10f1dc2364\AndroidManifest.xml:2:1-13:12
MERGED from [com.crashlytics.sdk.android:crashlytics-core:2.6.1] C:\Users\user\.gradle\caches\transforms-1\files-1.1\crashlytics-core-2.6.1.aar\87fb73dde2c93f6d125ce1b32013bc01\AndroidManifest.xml:45:1-56:12
MERGED from [com.crashlytics.sdk.android:answers:1.4.1] C:\Users\user\.gradle\caches\transforms-1\files-1.1\answers-1.4.1.aar\ccd766ca74e78ded4780b851e522508e\AndroidManifest.xml:2:1-13:12
MERGED from [io.fabric.sdk.android:fabric:1.4.2] C:\Users\user\.gradle\caches\transforms-1\files-1.1\fabric-1.4.2.aar\fcf01288b6937b196e3d1c9eb798a36e\AndroidManifest.xml:22:1-33:12
MERGED from [com.android.support:support-media-compat:26.1.0] C:\Users\user\.gradle\caches\transforms-1\files-1.1\support-media-compat-26.1.0.aar\2357aedf1fc2f5c8718d838d9597738a\AndroidManifest.xml:17:1-31:12
MERGED from [com.android.support:support-fragment:26.1.0] C:\Users\user\.gradle\caches\transforms-1\files-1.1\support-fragment-26.1.0.aar\656f6ad9e8dcea2e2a2f962a9bec8dbe\AndroidManifest.xml:17:1-31:12
MERGED from [com.android.support:support-core-utils:26.1.0] C:\Users\user\.gradle\caches\transforms-1\files-1.1\support-core-utils-26.1.0.aar\641ea27d1b129720e7f52858e50a365c\AndroidManifest.xml:17:1-31:12
MERGED from [com.android.support:support-core-ui:26.1.0] C:\Users\user\.gradle\caches\transforms-1\files-1.1\support-core-ui-26.1.0.aar\c9329f040b5f8db35dc3b7ee0d2dcb62\AndroidManifest.xml:17:1-31:12
MERGED from [com.android.support:support-compat:26.1.0] C:\Users\user\.gradle\caches\transforms-1\files-1.1\support-compat-26.1.0.aar\1bfeb849a2a3e447ceb0a9cc55641f10\AndroidManifest.xml:17:1-31:12
MERGED from [android.arch.lifecycle:runtime:1.0.0] C:\Users\user\.gradle\caches\transforms-1\files-1.1\runtime-1.0.0.aar\5db221d472fb81a752475a53cb963055\AndroidManifest.xml:17:1-30:12
INJECTED from D:\Desarrollos2018\cmex-voluntariados-app\platforms\android\app\src\main\AndroidManifest.xml:2:1-40:12
INJECTED from D:\Desarrollos2018\cmex-voluntariados-app\platforms\android\app\src\main\AndroidManifest.xml:2:1-40:12
INJECTED from D:\Desarrollos2018\cmex-voluntariados-app\platforms\android\app\src\main\AndroidManifest.xml:2:1-40:12
	package
		ADDED from D:\Desarrollos2018\cmex-voluntariados-app\platforms\android\app\src\main\AndroidManifest.xml:2:102-137
		INJECTED from D:\Desarrollos2018\cmex-voluntariados-app\platforms\android\app\src\main\AndroidManifest.xml
		INJECTED from D:\Desarrollos2018\cmex-voluntariados-app\platforms\android\app\src\main\AndroidManifest.xml
	android:versionName
		ADDED from D:\Desarrollos2018\cmex-voluntariados-app\platforms\android\app\src\main\AndroidManifest.xml:2:74-101
		INJECTED from D:\Desarrollos2018\cmex-voluntariados-app\platforms\android\app\src\main\AndroidManifest.xml
		INJECTED from D:\Desarrollos2018\cmex-voluntariados-app\platforms\android\app\src\main\AndroidManifest.xml
	android:hardwareAccelerated
		ADDED from D:\Desarrollos2018\cmex-voluntariados-app\platforms\android\app\src\main\AndroidManifest.xml:2:11-45
	xmlns:android
		ADDED from D:\Desarrollos2018\cmex-voluntariados-app\platforms\android\app\src\main\AndroidManifest.xml:2:138-196
	android:versionCode
		ADDED from D:\Desarrollos2018\cmex-voluntariados-app\platforms\android\app\src\main\AndroidManifest.xml:2:46-73
		INJECTED from D:\Desarrollos2018\cmex-voluntariados-app\platforms\android\app\src\main\AndroidManifest.xml
		INJECTED from D:\Desarrollos2018\cmex-voluntariados-app\platforms\android\app\src\main\AndroidManifest.xml
supports-screens
ADDED from D:\Desarrollos2018\cmex-voluntariados-app\platforms\android\app\src\main\AndroidManifest.xml:3:5-191
	android:largeScreens
		ADDED from D:\Desarrollos2018\cmex-voluntariados-app\platforms\android\app\src\main\AndroidManifest.xml:3:49-76
	android:smallScreens
		ADDED from D:\Desarrollos2018\cmex-voluntariados-app\platforms\android\app\src\main\AndroidManifest.xml:3:132-159
	android:normalScreens
		ADDED from D:\Desarrollos2018\cmex-voluntariados-app\platforms\android\app\src\main\AndroidManifest.xml:3:77-105
	android:xlargeScreens
		ADDED from D:\Desarrollos2018\cmex-voluntariados-app\platforms\android\app\src\main\AndroidManifest.xml:3:160-188
	android:resizeable
		ADDED from D:\Desarrollos2018\cmex-voluntariados-app\platforms\android\app\src\main\AndroidManifest.xml:3:106-131
	android:anyDensity
		ADDED from D:\Desarrollos2018\cmex-voluntariados-app\platforms\android\app\src\main\AndroidManifest.xml:3:23-48
uses-permission#android.permission.INTERNET
ADDED from D:\Desarrollos2018\cmex-voluntariados-app\platforms\android\app\src\main\AndroidManifest.xml:4:5-67
MERGED from [com.crashlytics.sdk.android:crashlytics:2.9.1] C:\Users\user\.gradle\caches\transforms-1\files-1.1\crashlytics-2.9.1.aar\8668cf8785b86b5d790990dba23fa740\AndroidManifest.xml:9:5-67
MERGED from [com.crashlytics.sdk.android:crashlytics:2.9.1] C:\Users\user\.gradle\caches\transforms-1\files-1.1\crashlytics-2.9.1.aar\8668cf8785b86b5d790990dba23fa740\AndroidManifest.xml:9:5-67
MERGED from [com.google.firebase:firebase-perf:16.2.1] C:\Users\user\.gradle\caches\transforms-1\files-1.1\firebase-perf-16.2.1.aar\bee5f54b0eac5a2fa1f8af9ce474d2b3\AndroidManifest.xml:22:5-67
MERGED from [com.google.firebase:firebase-perf:16.2.1] C:\Users\user\.gradle\caches\transforms-1\files-1.1\firebase-perf-16.2.1.aar\bee5f54b0eac5a2fa1f8af9ce474d2b3\AndroidManifest.xml:22:5-67
MERGED from [com.google.android.gms:play-services-analytics-impl:16.0.5] C:\Users\user\.gradle\caches\transforms-1\files-1.1\play-services-analytics-impl-16.0.5.aar\e17dc41e1d429e76fe0b9d8050aeb69a\AndroidManifest.xml:23:5-67
MERGED from [com.google.android.gms:play-services-analytics-impl:16.0.5] C:\Users\user\.gradle\caches\transforms-1\files-1.1\play-services-analytics-impl-16.0.5.aar\e17dc41e1d429e76fe0b9d8050aeb69a\AndroidManifest.xml:23:5-67
MERGED from [com.google.firebase:firebase-measurement-connector-impl:17.0.3] C:\Users\user\.gradle\caches\transforms-1\files-1.1\firebase-measurement-connector-impl-17.0.3.aar\525989c29bcf9fae2b82b442f8de3d39\AndroidManifest.xml:22:5-67
MERGED from [com.google.firebase:firebase-measurement-connector-impl:17.0.3] C:\Users\user\.gradle\caches\transforms-1\files-1.1\firebase-measurement-connector-impl-17.0.3.aar\525989c29bcf9fae2b82b442f8de3d39\AndroidManifest.xml:22:5-67
MERGED from [com.google.android.gms:play-services-tagmanager-api:16.0.5] C:\Users\user\.gradle\caches\transforms-1\files-1.1\play-services-tagmanager-api-16.0.5.aar\6ae2a2eaa9c22c62dd2edef9da1423d5\AndroidManifest.xml:23:5-67
MERGED from [com.google.android.gms:play-services-tagmanager-api:16.0.5] C:\Users\user\.gradle\caches\transforms-1\files-1.1\play-services-tagmanager-api-16.0.5.aar\6ae2a2eaa9c22c62dd2edef9da1423d5\AndroidManifest.xml:23:5-67
MERGED from [com.google.firebase:firebase-analytics:16.0.5] C:\Users\user\.gradle\caches\transforms-1\files-1.1\firebase-analytics-16.0.5.aar\3236af78c5211b01373853356a5a85f9\AndroidManifest.xml:23:5-67
MERGED from [com.google.firebase:firebase-analytics:16.0.5] C:\Users\user\.gradle\caches\transforms-1\files-1.1\firebase-analytics-16.0.5.aar\3236af78c5211b01373853356a5a85f9\AndroidManifest.xml:23:5-67
MERGED from [com.google.firebase:firebase-analytics-impl:16.2.3] C:\Users\user\.gradle\caches\transforms-1\files-1.1\firebase-analytics-impl-16.2.3.aar\dd01fbcba4b0ae3501e18b2fea8caba1\AndroidManifest.xml:23:5-67
MERGED from [com.google.firebase:firebase-analytics-impl:16.2.3] C:\Users\user\.gradle\caches\transforms-1\files-1.1\firebase-analytics-impl-16.2.3.aar\dd01fbcba4b0ae3501e18b2fea8caba1\AndroidManifest.xml:23:5-67
MERGED from [com.google.firebase:firebase-iid:17.0.4] C:\Users\user\.gradle\caches\transforms-1\files-1.1\firebase-iid-17.0.4.aar\ccc24ca30d78d8c9771d246b1ee57807\AndroidManifest.xml:23:5-67
MERGED from [com.google.firebase:firebase-iid:17.0.4] C:\Users\user\.gradle\caches\transforms-1\files-1.1\firebase-iid-17.0.4.aar\ccc24ca30d78d8c9771d246b1ee57807\AndroidManifest.xml:23:5-67
MERGED from [com.crashlytics.sdk.android:beta:1.2.7] C:\Users\user\.gradle\caches\transforms-1\files-1.1\beta-1.2.7.aar\63c94eb7b9e4edbecef0dc10f1dc2364\AndroidManifest.xml:9:5-67
MERGED from [com.crashlytics.sdk.android:beta:1.2.7] C:\Users\user\.gradle\caches\transforms-1\files-1.1\beta-1.2.7.aar\63c94eb7b9e4edbecef0dc10f1dc2364\AndroidManifest.xml:9:5-67
MERGED from [com.crashlytics.sdk.android:crashlytics-core:2.6.1] C:\Users\user\.gradle\caches\transforms-1\files-1.1\crashlytics-core-2.6.1.aar\87fb73dde2c93f6d125ce1b32013bc01\AndroidManifest.xml:52:5-67
MERGED from [com.crashlytics.sdk.android:crashlytics-core:2.6.1] C:\Users\user\.gradle\caches\transforms-1\files-1.1\crashlytics-core-2.6.1.aar\87fb73dde2c93f6d125ce1b32013bc01\AndroidManifest.xml:52:5-67
MERGED from [com.crashlytics.sdk.android:answers:1.4.1] C:\Users\user\.gradle\caches\transforms-1\files-1.1\answers-1.4.1.aar\ccd766ca74e78ded4780b851e522508e\AndroidManifest.xml:9:5-67
MERGED from [com.crashlytics.sdk.android:answers:1.4.1] C:\Users\user\.gradle\caches\transforms-1\files-1.1\answers-1.4.1.aar\ccd766ca74e78ded4780b851e522508e\AndroidManifest.xml:9:5-67
MERGED from [io.fabric.sdk.android:fabric:1.4.2] C:\Users\user\.gradle\caches\transforms-1\files-1.1\fabric-1.4.2.aar\fcf01288b6937b196e3d1c9eb798a36e\AndroidManifest.xml:29:5-67
MERGED from [io.fabric.sdk.android:fabric:1.4.2] C:\Users\user\.gradle\caches\transforms-1\files-1.1\fabric-1.4.2.aar\fcf01288b6937b196e3d1c9eb798a36e\AndroidManifest.xml:29:5-67
	android:name
		ADDED from D:\Desarrollos2018\cmex-voluntariados-app\platforms\android\app\src\main\AndroidManifest.xml:4:22-64
application
ADDED from D:\Desarrollos2018\cmex-voluntariados-app\platforms\android\app\src\main\AndroidManifest.xml:5:5-35:19
MERGED from [com.google.firebase:firebase-auth:16.0.5] C:\Users\user\.gradle\caches\transforms-1\files-1.1\firebase-auth-16.0.5.aar\6a65c2dbcaac7729374ad3eda97731b7\AndroidManifest.xml:23:5-40:19
MERGED from [com.google.firebase:firebase-auth:16.0.5] C:\Users\user\.gradle\caches\transforms-1\files-1.1\firebase-auth-16.0.5.aar\6a65c2dbcaac7729374ad3eda97731b7\AndroidManifest.xml:23:5-40:19
MERGED from [com.crashlytics.sdk.android:crashlytics:2.9.1] C:\Users\user\.gradle\caches\transforms-1\files-1.1\crashlytics-2.9.1.aar\8668cf8785b86b5d790990dba23fa740\AndroidManifest.xml:11:5-17:19
MERGED from [com.crashlytics.sdk.android:crashlytics:2.9.1] C:\Users\user\.gradle\caches\transforms-1\files-1.1\crashlytics-2.9.1.aar\8668cf8785b86b5d790990dba23fa740\AndroidManifest.xml:11:5-17:19
MERGED from [com.google.firebase:firebase-core:16.0.5] C:\Users\user\.gradle\caches\transforms-1\files-1.1\firebase-core-16.0.5.aar\abbdd2778103732ed59f0ded5230abf1\AndroidManifest.xml:7:5-20
MERGED from [com.google.firebase:firebase-core:16.0.5] C:\Users\user\.gradle\caches\transforms-1\files-1.1\firebase-core-16.0.5.aar\abbdd2778103732ed59f0ded5230abf1\AndroidManifest.xml:7:5-20
MERGED from [com.google.firebase:firebase-messaging:17.3.4] C:\Users\user\.gradle\caches\transforms-1\files-1.1\firebase-messaging-17.3.4.aar\02e603b24960c0f80c35406d63a0b20f\AndroidManifest.xml:22:5-35:19
MERGED from [com.google.firebase:firebase-messaging:17.3.4] C:\Users\user\.gradle\caches\transforms-1\files-1.1\firebase-messaging-17.3.4.aar\02e603b24960c0f80c35406d63a0b20f\AndroidManifest.xml:22:5-35:19
MERGED from [com.google.firebase:firebase-perf:16.2.1] C:\Users\user\.gradle\caches\transforms-1\files-1.1\firebase-perf-16.2.1.aar\bee5f54b0eac5a2fa1f8af9ce474d2b3\AndroidManifest.xml:27:5-39:19
MERGED from [com.google.firebase:firebase-perf:16.2.1] C:\Users\user\.gradle\caches\transforms-1\files-1.1\firebase-perf-16.2.1.aar\bee5f54b0eac5a2fa1f8af9ce474d2b3\AndroidManifest.xml:27:5-39:19
MERGED from [com.google.firebase:firebase-config:16.1.0] C:\Users\user\.gradle\caches\transforms-1\files-1.1\firebase-config-16.1.0.aar\99e3cf75c1237e8e7c4d5cfc7e6816e1\AndroidManifest.xml:22:5-20
MERGED from [com.google.firebase:firebase-config:16.1.0] C:\Users\user\.gradle\caches\transforms-1\files-1.1\firebase-config-16.1.0.aar\99e3cf75c1237e8e7c4d5cfc7e6816e1\AndroidManifest.xml:22:5-20
MERGED from [com.google.firebase:firebase-auth-interop:16.0.1] C:\Users\user\.gradle\caches\transforms-1\files-1.1\firebase-auth-interop-16.0.1.aar\5318a0e3802925cdf5461a909567c24a\AndroidManifest.xml:7:5-8:19
MERGED from [com.google.firebase:firebase-auth-interop:16.0.1] C:\Users\user\.gradle\caches\transforms-1\files-1.1\firebase-auth-interop-16.0.1.aar\5318a0e3802925cdf5461a909567c24a\AndroidManifest.xml:7:5-8:19
MERGED from [com.google.android.gms:play-services-analytics-impl:16.0.5] C:\Users\user\.gradle\caches\transforms-1\files-1.1\play-services-analytics-impl-16.0.5.aar\e17dc41e1d429e76fe0b9d8050aeb69a\AndroidManifest.xml:29:5-20
MERGED from [com.google.android.gms:play-services-analytics-impl:16.0.5] C:\Users\user\.gradle\caches\transforms-1\files-1.1\play-services-analytics-impl-16.0.5.aar\e17dc41e1d429e76fe0b9d8050aeb69a\AndroidManifest.xml:29:5-20
MERGED from [com.google.android.gms:play-services-clearcut:16.0.0] C:\Users\user\.gradle\caches\transforms-1\files-1.1\play-services-clearcut-16.0.0.aar\af6a0c952227e4025925f08c64e9001d\AndroidManifest.xml:22:5-20
MERGED from [com.google.android.gms:play-services-clearcut:16.0.0] C:\Users\user\.gradle\caches\transforms-1\files-1.1\play-services-clearcut-16.0.0.aar\af6a0c952227e4025925f08c64e9001d\AndroidManifest.xml:22:5-20
MERGED from [com.google.android.gms:play-services-phenotype:16.0.0] C:\Users\user\.gradle\caches\transforms-1\files-1.1\play-services-phenotype-16.0.0.aar\328e0b085fdb1a67c374bd28e7d4be67\AndroidManifest.xml:22:5-20
MERGED from [com.google.android.gms:play-services-phenotype:16.0.0] C:\Users\user\.gradle\caches\transforms-1\files-1.1\play-services-phenotype-16.0.0.aar\328e0b085fdb1a67c374bd28e7d4be67\AndroidManifest.xml:22:5-20
MERGED from [com.google.firebase:firebase-measurement-connector-impl:17.0.3] C:\Users\user\.gradle\caches\transforms-1\files-1.1\firebase-measurement-connector-impl-17.0.3.aar\525989c29bcf9fae2b82b442f8de3d39\AndroidManifest.xml:26:5-32:19
MERGED from [com.google.firebase:firebase-measurement-connector-impl:17.0.3] C:\Users\user\.gradle\caches\transforms-1\files-1.1\firebase-measurement-connector-impl-17.0.3.aar\525989c29bcf9fae2b82b442f8de3d39\AndroidManifest.xml:26:5-32:19
MERGED from [com.google.android.gms:play-services-tagmanager-api:16.0.5] C:\Users\user\.gradle\caches\transforms-1\files-1.1\play-services-tagmanager-api-16.0.5.aar\6ae2a2eaa9c22c62dd2edef9da1423d5\AndroidManifest.xml:26:5-45:19
MERGED from [com.google.android.gms:play-services-tagmanager-api:16.0.5] C:\Users\user\.gradle\caches\transforms-1\files-1.1\play-services-tagmanager-api-16.0.5.aar\6ae2a2eaa9c22c62dd2edef9da1423d5\AndroidManifest.xml:26:5-45:19
MERGED from [com.google.firebase:firebase-analytics:16.0.5] C:\Users\user\.gradle\caches\transforms-1\files-1.1\firebase-analytics-16.0.5.aar\3236af78c5211b01373853356a5a85f9\AndroidManifest.xml:28:5-53:19
MERGED from [com.google.firebase:firebase-analytics:16.0.5] C:\Users\user\.gradle\caches\transforms-1\files-1.1\firebase-analytics-16.0.5.aar\3236af78c5211b01373853356a5a85f9\AndroidManifest.xml:28:5-53:19
MERGED from [com.google.android.gms:play-services-measurement-api:16.0.3] C:\Users\user\.gradle\caches\transforms-1\files-1.1\play-services-measurement-api-16.0.3.aar\8666fe9d6f7740ea5850bfd7a305b7ad\AndroidManifest.xml:22:5-23:19
MERGED from [com.google.android.gms:play-services-measurement-api:16.0.3] C:\Users\user\.gradle\caches\transforms-1\files-1.1\play-services-measurement-api-16.0.3.aar\8666fe9d6f7740ea5850bfd7a305b7ad\AndroidManifest.xml:22:5-23:19
MERGED from [com.google.firebase:firebase-analytics-impl:16.2.3] C:\Users\user\.gradle\caches\transforms-1\files-1.1\firebase-analytics-impl-16.2.3.aar\dd01fbcba4b0ae3501e18b2fea8caba1\AndroidManifest.xml:28:5-38:19
MERGED from [com.google.firebase:firebase-analytics-impl:16.2.3] C:\Users\user\.gradle\caches\transforms-1\files-1.1\firebase-analytics-impl-16.2.3.aar\dd01fbcba4b0ae3501e18b2fea8caba1\AndroidManifest.xml:28:5-38:19
MERGED from [com.google.firebase:firebase-iid:17.0.4] C:\Users\user\.gradle\caches\transforms-1\files-1.1\firebase-iid-17.0.4.aar\ccc24ca30d78d8c9771d246b1ee57807\AndroidManifest.xml:28:5-57:19
MERGED from [com.google.firebase:firebase-iid:17.0.4] C:\Users\user\.gradle\caches\transforms-1\files-1.1\firebase-iid-17.0.4.aar\ccc24ca30d78d8c9771d246b1ee57807\AndroidManifest.xml:28:5-57:19
MERGED from [com.google.firebase:firebase-iid-interop:16.0.1] C:\Users\user\.gradle\caches\transforms-1\files-1.1\firebase-iid-interop-16.0.1.aar\9ed5c05640721475d66fe01704fac28a\AndroidManifest.xml:7:5-8:19
MERGED from [com.google.firebase:firebase-iid-interop:16.0.1] C:\Users\user\.gradle\caches\transforms-1\files-1.1\firebase-iid-interop-16.0.1.aar\9ed5c05640721475d66fe01704fac28a\AndroidManifest.xml:7:5-8:19
MERGED from [com.google.android.gms:play-services-base:16.0.1] C:\Users\user\.gradle\caches\transforms-1\files-1.1\play-services-base-16.0.1.aar\3f0d613d5baf263b8cfc1794013f2b4a\AndroidManifest.xml:22:5-27:19
MERGED from [com.google.android.gms:play-services-base:16.0.1] C:\Users\user\.gradle\caches\transforms-1\files-1.1\play-services-base-16.0.1.aar\3f0d613d5baf263b8cfc1794013f2b4a\AndroidManifest.xml:22:5-27:19
MERGED from [com.google.firebase:firebase-common:16.0.3] C:\Users\user\.gradle\caches\transforms-1\files-1.1\firebase-common-16.0.3.aar\4551ec3546594dd8d1c4753b29872788\AndroidManifest.xml:9:5-15:19
MERGED from [com.google.firebase:firebase-common:16.0.3] C:\Users\user\.gradle\caches\transforms-1\files-1.1\firebase-common-16.0.3.aar\4551ec3546594dd8d1c4753b29872788\AndroidManifest.xml:9:5-15:19
MERGED from [com.google.android.gms:play-services-tasks:16.0.1] C:\Users\user\.gradle\caches\transforms-1\files-1.1\play-services-tasks-16.0.1.aar\df67dd3b429a5e83d7f6f8b5aa28af27\AndroidManifest.xml:7:5-20
MERGED from [com.google.android.gms:play-services-tasks:16.0.1] C:\Users\user\.gradle\caches\transforms-1\files-1.1\play-services-tasks-16.0.1.aar\df67dd3b429a5e83d7f6f8b5aa28af27\AndroidManifest.xml:7:5-20
MERGED from [com.google.android.gms:play-services-ads-identifier:16.0.0] C:\Users\user\.gradle\caches\transforms-1\files-1.1\play-services-ads-identifier-16.0.0.aar\a2006fe1e3291a77c0d408251b2d90b0\AndroidManifest.xml:22:5-20
MERGED from [com.google.android.gms:play-services-ads-identifier:16.0.0] C:\Users\user\.gradle\caches\transforms-1\files-1.1\play-services-ads-identifier-16.0.0.aar\a2006fe1e3291a77c0d408251b2d90b0\AndroidManifest.xml:22:5-20
MERGED from [com.google.android.gms:play-services-measurement-base:16.0.4] C:\Users\user\.gradle\caches\transforms-1\files-1.1\play-services-measurement-base-16.0.4.aar\72adf61211965b1e525c5db484df2e45\AndroidManifest.xml:7:5-20
MERGED from [com.google.android.gms:play-services-measurement-base:16.0.4] C:\Users\user\.gradle\caches\transforms-1\files-1.1\play-services-measurement-base-16.0.4.aar\72adf61211965b1e525c5db484df2e45\AndroidManifest.xml:7:5-20
MERGED from [com.google.android.gms:play-services-stats:16.0.1] C:\Users\user\.gradle\caches\transforms-1\files-1.1\play-services-stats-16.0.1.aar\f312581797eb8f8acf261be8f15828f9\AndroidManifest.xml:7:5-20
MERGED from [com.google.android.gms:play-services-stats:16.0.1] C:\Users\user\.gradle\caches\transforms-1\files-1.1\play-services-stats-16.0.1.aar\f312581797eb8f8acf261be8f15828f9\AndroidManifest.xml:7:5-20
MERGED from [com.google.firebase:firebase-measurement-connector:17.0.1] C:\Users\user\.gradle\caches\transforms-1\files-1.1\firebase-measurement-connector-17.0.1.aar\0015823e0ab2d8b9d940e7babbd6a417\AndroidManifest.xml:22:5-23:19
MERGED from [com.google.firebase:firebase-measurement-connector:17.0.1] C:\Users\user\.gradle\caches\transforms-1\files-1.1\firebase-measurement-connector-17.0.1.aar\0015823e0ab2d8b9d940e7babbd6a417\AndroidManifest.xml:22:5-23:19
MERGED from [com.google.android.gms:play-services-basement:16.1.0] C:\Users\user\.gradle\caches\transforms-1\files-1.1\play-services-basement-16.1.0.aar\5994aab45f01c7ef89f8302f5c4ab412\AndroidManifest.xml:22:5-26:19
MERGED from [com.google.android.gms:play-services-basement:16.1.0] C:\Users\user\.gradle\caches\transforms-1\files-1.1\play-services-basement-16.1.0.aar\5994aab45f01c7ef89f8302f5c4ab412\AndroidManifest.xml:22:5-26:19
MERGED from [com.android.support:support-v4:26.1.0] C:\Users\user\.gradle\caches\transforms-1\files-1.1\support-v4-26.1.0.aar\897c9d690feb9ddd4fe2d5216f4c8d83\AndroidManifest.xml:25:5-29:19
MERGED from [com.android.support:support-v4:26.1.0] C:\Users\user\.gradle\caches\transforms-1\files-1.1\support-v4-26.1.0.aar\897c9d690feb9ddd4fe2d5216f4c8d83\AndroidManifest.xml:25:5-29:19
MERGED from [com.crashlytics.sdk.android:beta:1.2.7] C:\Users\user\.gradle\caches\transforms-1\files-1.1\beta-1.2.7.aar\63c94eb7b9e4edbecef0dc10f1dc2364\AndroidManifest.xml:11:5-20
MERGED from [com.crashlytics.sdk.android:beta:1.2.7] C:\Users\user\.gradle\caches\transforms-1\files-1.1\beta-1.2.7.aar\63c94eb7b9e4edbecef0dc10f1dc2364\AndroidManifest.xml:11:5-20
MERGED from [com.crashlytics.sdk.android:crashlytics-core:2.6.1] C:\Users\user\.gradle\caches\transforms-1\files-1.1\crashlytics-core-2.6.1.aar\87fb73dde2c93f6d125ce1b32013bc01\AndroidManifest.xml:54:5-20
MERGED from [com.crashlytics.sdk.android:crashlytics-core:2.6.1] C:\Users\user\.gradle\caches\transforms-1\files-1.1\crashlytics-core-2.6.1.aar\87fb73dde2c93f6d125ce1b32013bc01\AndroidManifest.xml:54:5-20
MERGED from [com.crashlytics.sdk.android:answers:1.4.1] C:\Users\user\.gradle\caches\transforms-1\files-1.1\answers-1.4.1.aar\ccd766ca74e78ded4780b851e522508e\AndroidManifest.xml:11:5-20
MERGED from [com.crashlytics.sdk.android:answers:1.4.1] C:\Users\user\.gradle\caches\transforms-1\files-1.1\answers-1.4.1.aar\ccd766ca74e78ded4780b851e522508e\AndroidManifest.xml:11:5-20
MERGED from [io.fabric.sdk.android:fabric:1.4.2] C:\Users\user\.gradle\caches\transforms-1\files-1.1\fabric-1.4.2.aar\fcf01288b6937b196e3d1c9eb798a36e\AndroidManifest.xml:31:5-20
MERGED from [io.fabric.sdk.android:fabric:1.4.2] C:\Users\user\.gradle\caches\transforms-1\files-1.1\fabric-1.4.2.aar\fcf01288b6937b196e3d1c9eb798a36e\AndroidManifest.xml:31:5-20
MERGED from [com.android.support:support-media-compat:26.1.0] C:\Users\user\.gradle\caches\transforms-1\files-1.1\support-media-compat-26.1.0.aar\2357aedf1fc2f5c8718d838d9597738a\AndroidManifest.xml:25:5-29:19
MERGED from [com.android.support:support-media-compat:26.1.0] C:\Users\user\.gradle\caches\transforms-1\files-1.1\support-media-compat-26.1.0.aar\2357aedf1fc2f5c8718d838d9597738a\AndroidManifest.xml:25:5-29:19
MERGED from [com.android.support:support-fragment:26.1.0] C:\Users\user\.gradle\caches\transforms-1\files-1.1\support-fragment-26.1.0.aar\656f6ad9e8dcea2e2a2f962a9bec8dbe\AndroidManifest.xml:25:5-29:19
MERGED from [com.android.support:support-fragment:26.1.0] C:\Users\user\.gradle\caches\transforms-1\files-1.1\support-fragment-26.1.0.aar\656f6ad9e8dcea2e2a2f962a9bec8dbe\AndroidManifest.xml:25:5-29:19
MERGED from [com.android.support:support-core-utils:26.1.0] C:\Users\user\.gradle\caches\transforms-1\files-1.1\support-core-utils-26.1.0.aar\641ea27d1b129720e7f52858e50a365c\AndroidManifest.xml:25:5-29:19
MERGED from [com.android.support:support-core-utils:26.1.0] C:\Users\user\.gradle\caches\transforms-1\files-1.1\support-core-utils-26.1.0.aar\641ea27d1b129720e7f52858e50a365c\AndroidManifest.xml:25:5-29:19
MERGED from [com.android.support:support-core-ui:26.1.0] C:\Users\user\.gradle\caches\transforms-1\files-1.1\support-core-ui-26.1.0.aar\c9329f040b5f8db35dc3b7ee0d2dcb62\AndroidManifest.xml:25:5-29:19
MERGED from [com.android.support:support-core-ui:26.1.0] C:\Users\user\.gradle\caches\transforms-1\files-1.1\support-core-ui-26.1.0.aar\c9329f040b5f8db35dc3b7ee0d2dcb62\AndroidManifest.xml:25:5-29:19
MERGED from [com.android.support:support-compat:26.1.0] C:\Users\user\.gradle\caches\transforms-1\files-1.1\support-compat-26.1.0.aar\1bfeb849a2a3e447ceb0a9cc55641f10\AndroidManifest.xml:25:5-29:19
MERGED from [com.android.support:support-compat:26.1.0] C:\Users\user\.gradle\caches\transforms-1\files-1.1\support-compat-26.1.0.aar\1bfeb849a2a3e447ceb0a9cc55641f10\AndroidManifest.xml:25:5-29:19
MERGED from [android.arch.lifecycle:runtime:1.0.0] C:\Users\user\.gradle\caches\transforms-1\files-1.1\runtime-1.0.0.aar\5db221d472fb81a752475a53cb963055\AndroidManifest.xml:24:5-28:19
MERGED from [android.arch.lifecycle:runtime:1.0.0] C:\Users\user\.gradle\caches\transforms-1\files-1.1\runtime-1.0.0.aar\5db221d472fb81a752475a53cb963055\AndroidManifest.xml:24:5-28:19
	android:supportsRtl
		ADDED from D:\Desarrollos2018\cmex-voluntariados-app\platforms\android\app\src\main\AndroidManifest.xml:5:114-140
	android:label
		ADDED from D:\Desarrollos2018\cmex-voluntariados-app\platforms\android\app\src\main\AndroidManifest.xml:5:81-113
	android:hardwareAccelerated
		ADDED from D:\Desarrollos2018\cmex-voluntariados-app\platforms\android\app\src\main\AndroidManifest.xml:5:18-52
	android:icon
		ADDED from D:\Desarrollos2018\cmex-voluntariados-app\platforms\android\app\src\main\AndroidManifest.xml:5:53-80
activity#org.voluntariadocemex.com.MainActivity
ADDED from D:\Desarrollos2018\cmex-voluntariados-app\platforms\android\app\src\main\AndroidManifest.xml:6:9-11:20
	android:label
		ADDED from D:\Desarrollos2018\cmex-voluntariados-app\platforms\android\app\src\main\AndroidManifest.xml:6:97-134
	android:launchMode
		ADDED from D:\Desarrollos2018\cmex-voluntariados-app\platforms\android\app\src\main\AndroidManifest.xml:6:135-165
	android:windowSoftInputMode
		ADDED from D:\Desarrollos2018\cmex-voluntariados-app\platforms\android\app\src\main\AndroidManifest.xml:6:257-299
	android:configChanges
		ADDED from D:\Desarrollos2018\cmex-voluntariados-app\platforms\android\app\src\main\AndroidManifest.xml:6:19-96
	android:theme
		ADDED from D:\Desarrollos2018\cmex-voluntariados-app\platforms\android\app\src\main\AndroidManifest.xml:6:194-256
	android:name
		ADDED from D:\Desarrollos2018\cmex-voluntariados-app\platforms\android\app\src\main\AndroidManifest.xml:6:166-193
intent-filter#android.intent.action.MAIN+android.intent.category.LAUNCHER
ADDED from D:\Desarrollos2018\cmex-voluntariados-app\platforms\android\app\src\main\AndroidManifest.xml:7:13-10:29
	android:label
		ADDED from D:\Desarrollos2018\cmex-voluntariados-app\platforms\android\app\src\main\AndroidManifest.xml:7:28-65
action#android.intent.action.MAIN
ADDED from D:\Desarrollos2018\cmex-voluntariados-app\platforms\android\app\src\main\AndroidManifest.xml:8:17-69
	android:name
		ADDED from D:\Desarrollos2018\cmex-voluntariados-app\platforms\android\app\src\main\AndroidManifest.xml:8:25-66
category#android.intent.category.LAUNCHER
ADDED from D:\Desarrollos2018\cmex-voluntariados-app\platforms\android\app\src\main\AndroidManifest.xml:9:17-77
	android:name
		ADDED from D:\Desarrollos2018\cmex-voluntariados-app\platforms\android\app\src\main\AndroidManifest.xml:9:27-74
service#com.google.android.gms.measurement.AppMeasurementService
ADDED from D:\Desarrollos2018\cmex-voluntariados-app\platforms\android\app\src\main\AndroidManifest.xml:12:9-140
MERGED from [com.google.firebase:firebase-analytics:16.0.5] C:\Users\user\.gradle\caches\transforms-1\files-1.1\firebase-analytics-16.0.5.aar\3236af78c5211b01373853356a5a85f9\AndroidManifest.xml:44:9-47:40
MERGED from [com.google.firebase:firebase-analytics:16.0.5] C:\Users\user\.gradle\caches\transforms-1\files-1.1\firebase-analytics-16.0.5.aar\3236af78c5211b01373853356a5a85f9\AndroidManifest.xml:44:9-47:40
	android:enabled
		ADDED from D:\Desarrollos2018\cmex-voluntariados-app\platforms\android\app\src\main\AndroidManifest.xml:12:18-40
	android:exported
		ADDED from D:\Desarrollos2018\cmex-voluntariados-app\platforms\android\app\src\main\AndroidManifest.xml:12:41-65
	android:name
		ADDED from D:\Desarrollos2018\cmex-voluntariados-app\platforms\android\app\src\main\AndroidManifest.xml:12:66-137
service#org.apache.cordova.firebase.FirebasePluginMessagingService
ADDED from D:\Desarrollos2018\cmex-voluntariados-app\platforms\android\app\src\main\AndroidManifest.xml:13:9-17:19
	android:name
		ADDED from D:\Desarrollos2018\cmex-voluntariados-app\platforms\android\app\src\main\AndroidManifest.xml:13:18-91
intent-filter#com.google.firebase.MESSAGING_EVENT
ADDED from D:\Desarrollos2018\cmex-voluntariados-app\platforms\android\app\src\main\AndroidManifest.xml:14:13-16:29
action#com.google.firebase.MESSAGING_EVENT
ADDED from D:\Desarrollos2018\cmex-voluntariados-app\platforms\android\app\src\main\AndroidManifest.xml:15:17-78
	android:name
		ADDED from D:\Desarrollos2018\cmex-voluntariados-app\platforms\android\app\src\main\AndroidManifest.xml:15:25-75
service#org.apache.cordova.firebase.FirebasePluginInstanceIDService
ADDED from D:\Desarrollos2018\cmex-voluntariados-app\platforms\android\app\src\main\AndroidManifest.xml:18:9-22:19
	android:name
		ADDED from D:\Desarrollos2018\cmex-voluntariados-app\platforms\android\app\src\main\AndroidManifest.xml:18:18-92
intent-filter#com.google.firebase.INSTANCE_ID_EVENT
ADDED from D:\Desarrollos2018\cmex-voluntariados-app\platforms\android\app\src\main\AndroidManifest.xml:19:13-21:29
action#com.google.firebase.INSTANCE_ID_EVENT
ADDED from D:\Desarrollos2018\cmex-voluntariados-app\platforms\android\app\src\main\AndroidManifest.xml:20:17-80
	android:name
		ADDED from D:\Desarrollos2018\cmex-voluntariados-app\platforms\android\app\src\main\AndroidManifest.xml:20:25-77
receiver#org.apache.cordova.firebase.OnNotificationOpenReceiver
ADDED from D:\Desarrollos2018\cmex-voluntariados-app\platforms\android\app\src\main\AndroidManifest.xml:23:9-91
	android:name
		ADDED from D:\Desarrollos2018\cmex-voluntariados-app\platforms\android\app\src\main\AndroidManifest.xml:23:19-88
receiver#nl.xservices.plugins.ShareChooserPendingIntent
ADDED from D:\Desarrollos2018\cmex-voluntariados-app\platforms\android\app\src\main\AndroidManifest.xml:24:9-28:20
	android:enabled
		ADDED from D:\Desarrollos2018\cmex-voluntariados-app\platforms\android\app\src\main\AndroidManifest.xml:24:19-41
	android:name
		ADDED from D:\Desarrollos2018\cmex-voluntariados-app\platforms\android\app\src\main\AndroidManifest.xml:24:42-103
intent-filter#android.intent.action.SEND
ADDED from D:\Desarrollos2018\cmex-voluntariados-app\platforms\android\app\src\main\AndroidManifest.xml:25:13-27:29
action#android.intent.action.SEND
ADDED from D:\Desarrollos2018\cmex-voluntariados-app\platforms\android\app\src\main\AndroidManifest.xml:26:17-69
	android:name
		ADDED from D:\Desarrollos2018\cmex-voluntariados-app\platforms\android\app\src\main\AndroidManifest.xml:26:25-66
uses-sdk
ADDED from D:\Desarrollos2018\cmex-voluntariados-app\platforms\android\app\src\main\AndroidManifest.xml:36:5-74
MERGED from [me.leolin:ShortcutBadger:1.1.4] C:\Users\user\.gradle\caches\transforms-1\files-1.1\ShortcutBadger-1.1.4.aar\c2d0e2423cff09ce9f1145a8287bb052\AndroidManifest.xml:7:5-9:41
MERGED from [me.leolin:ShortcutBadger:1.1.4] C:\Users\user\.gradle\caches\transforms-1\files-1.1\ShortcutBadger-1.1.4.aar\c2d0e2423cff09ce9f1145a8287bb052\AndroidManifest.xml:7:5-9:41
MERGED from [com.google.firebase:firebase-auth:16.0.5] C:\Users\user\.gradle\caches\transforms-1\files-1.1\firebase-auth-16.0.5.aar\6a65c2dbcaac7729374ad3eda97731b7\AndroidManifest.xml:21:5-44
MERGED from [com.google.firebase:firebase-auth:16.0.5] C:\Users\user\.gradle\caches\transforms-1\files-1.1\firebase-auth-16.0.5.aar\6a65c2dbcaac7729374ad3eda97731b7\AndroidManifest.xml:21:5-44
MERGED from [com.crashlytics.sdk.android:crashlytics:2.9.1] C:\Users\user\.gradle\caches\transforms-1\files-1.1\crashlytics-2.9.1.aar\8668cf8785b86b5d790990dba23fa740\AndroidManifest.xml:7:5-43
MERGED from [com.crashlytics.sdk.android:crashlytics:2.9.1] C:\Users\user\.gradle\caches\transforms-1\files-1.1\crashlytics-2.9.1.aar\8668cf8785b86b5d790990dba23fa740\AndroidManifest.xml:7:5-43
MERGED from [com.google.android.gms:play-services-tagmanager:16.0.5] C:\Users\user\.gradle\caches\transforms-1\files-1.1\play-services-tagmanager-16.0.5.aar\82c443eb7a05bb2dd1a3ff76fcbcb812\AndroidManifest.xml:20:5-44
MERGED from [com.google.android.gms:play-services-tagmanager:16.0.5] C:\Users\user\.gradle\caches\transforms-1\files-1.1\play-services-tagmanager-16.0.5.aar\82c443eb7a05bb2dd1a3ff76fcbcb812\AndroidManifest.xml:20:5-44
MERGED from [com.google.firebase:firebase-core:16.0.5] C:\Users\user\.gradle\caches\transforms-1\files-1.1\firebase-core-16.0.5.aar\abbdd2778103732ed59f0ded5230abf1\AndroidManifest.xml:5:5-44
MERGED from [com.google.firebase:firebase-core:16.0.5] C:\Users\user\.gradle\caches\transforms-1\files-1.1\firebase-core-16.0.5.aar\abbdd2778103732ed59f0ded5230abf1\AndroidManifest.xml:5:5-44
MERGED from [com.google.firebase:firebase-messaging:17.3.4] C:\Users\user\.gradle\caches\transforms-1\files-1.1\firebase-messaging-17.3.4.aar\02e603b24960c0f80c35406d63a0b20f\AndroidManifest.xml:20:5-44
MERGED from [com.google.firebase:firebase-messaging:17.3.4] C:\Users\user\.gradle\caches\transforms-1\files-1.1\firebase-messaging-17.3.4.aar\02e603b24960c0f80c35406d63a0b20f\AndroidManifest.xml:20:5-44
MERGED from [com.google.firebase:firebase-perf:16.2.1] C:\Users\user\.gradle\caches\transforms-1\files-1.1\firebase-perf-16.2.1.aar\bee5f54b0eac5a2fa1f8af9ce474d2b3\AndroidManifest.xml:20:5-44
MERGED from [com.google.firebase:firebase-perf:16.2.1] C:\Users\user\.gradle\caches\transforms-1\files-1.1\firebase-perf-16.2.1.aar\bee5f54b0eac5a2fa1f8af9ce474d2b3\AndroidManifest.xml:20:5-44
MERGED from [com.google.firebase:firebase-config:16.1.0] C:\Users\user\.gradle\caches\transforms-1\files-1.1\firebase-config-16.1.0.aar\99e3cf75c1237e8e7c4d5cfc7e6816e1\AndroidManifest.xml:20:5-44
MERGED from [com.google.firebase:firebase-config:16.1.0] C:\Users\user\.gradle\caches\transforms-1\files-1.1\firebase-config-16.1.0.aar\99e3cf75c1237e8e7c4d5cfc7e6816e1\AndroidManifest.xml:20:5-44
MERGED from [com.google.android.gms:play-services-flags:16.0.1] C:\Users\user\.gradle\caches\transforms-1\files-1.1\play-services-flags-16.0.1.aar\14e4685c522d2fbe11957f7001b778d5\AndroidManifest.xml:20:5-44
MERGED from [com.google.android.gms:play-services-flags:16.0.1] C:\Users\user\.gradle\caches\transforms-1\files-1.1\play-services-flags-16.0.1.aar\14e4685c522d2fbe11957f7001b778d5\AndroidManifest.xml:20:5-44
MERGED from [com.google.firebase:firebase-auth-interop:16.0.1] C:\Users\user\.gradle\caches\transforms-1\files-1.1\firebase-auth-interop-16.0.1.aar\5318a0e3802925cdf5461a909567c24a\AndroidManifest.xml:5:5-44
MERGED from [com.google.firebase:firebase-auth-interop:16.0.1] C:\Users\user\.gradle\caches\transforms-1\files-1.1\firebase-auth-interop-16.0.1.aar\5318a0e3802925cdf5461a909567c24a\AndroidManifest.xml:5:5-44
MERGED from [com.google.android.gms:play-services-analytics-impl:16.0.5] C:\Users\user\.gradle\caches\transforms-1\files-1.1\play-services-analytics-impl-16.0.5.aar\e17dc41e1d429e76fe0b9d8050aeb69a\AndroidManifest.xml:20:5-44
MERGED from [com.google.android.gms:play-services-analytics-impl:16.0.5] C:\Users\user\.gradle\caches\transforms-1\files-1.1\play-services-analytics-impl-16.0.5.aar\e17dc41e1d429e76fe0b9d8050aeb69a\AndroidManifest.xml:20:5-44
MERGED from [com.google.android.gms:play-services-clearcut:16.0.0] C:\Users\user\.gradle\caches\transforms-1\files-1.1\play-services-clearcut-16.0.0.aar\af6a0c952227e4025925f08c64e9001d\AndroidManifest.xml:20:5-44
MERGED from [com.google.android.gms:play-services-clearcut:16.0.0] C:\Users\user\.gradle\caches\transforms-1\files-1.1\play-services-clearcut-16.0.0.aar\af6a0c952227e4025925f08c64e9001d\AndroidManifest.xml:20:5-44
MERGED from [com.google.android.gms:play-services-phenotype:16.0.0] C:\Users\user\.gradle\caches\transforms-1\files-1.1\play-services-phenotype-16.0.0.aar\328e0b085fdb1a67c374bd28e7d4be67\AndroidManifest.xml:20:5-44
MERGED from [com.google.android.gms:play-services-phenotype:16.0.0] C:\Users\user\.gradle\caches\transforms-1\files-1.1\play-services-phenotype-16.0.0.aar\328e0b085fdb1a67c374bd28e7d4be67\AndroidManifest.xml:20:5-44
MERGED from [com.google.firebase:firebase-measurement-connector-impl:17.0.3] C:\Users\user\.gradle\caches\transforms-1\files-1.1\firebase-measurement-connector-impl-17.0.3.aar\525989c29bcf9fae2b82b442f8de3d39\AndroidManifest.xml:20:5-44
MERGED from [com.google.firebase:firebase-measurement-connector-impl:17.0.3] C:\Users\user\.gradle\caches\transforms-1\files-1.1\firebase-measurement-connector-impl-17.0.3.aar\525989c29bcf9fae2b82b442f8de3d39\AndroidManifest.xml:20:5-44
MERGED from [com.google.android.gms:play-services-tagmanager-api:16.0.5] C:\Users\user\.gradle\caches\transforms-1\files-1.1\play-services-tagmanager-api-16.0.5.aar\6ae2a2eaa9c22c62dd2edef9da1423d5\AndroidManifest.xml:20:5-44
MERGED from [com.google.android.gms:play-services-tagmanager-api:16.0.5] C:\Users\user\.gradle\caches\transforms-1\files-1.1\play-services-tagmanager-api-16.0.5.aar\6ae2a2eaa9c22c62dd2edef9da1423d5\AndroidManifest.xml:20:5-44
MERGED from [com.google.firebase:firebase-analytics:16.0.5] C:\Users\user\.gradle\caches\transforms-1\files-1.1\firebase-analytics-16.0.5.aar\3236af78c5211b01373853356a5a85f9\AndroidManifest.xml:20:5-44
MERGED from [com.google.firebase:firebase-analytics:16.0.5] C:\Users\user\.gradle\caches\transforms-1\files-1.1\firebase-analytics-16.0.5.aar\3236af78c5211b01373853356a5a85f9\AndroidManifest.xml:20:5-44
MERGED from [com.google.android.gms:play-services-measurement-api:16.0.3] C:\Users\user\.gradle\caches\transforms-1\files-1.1\play-services-measurement-api-16.0.3.aar\8666fe9d6f7740ea5850bfd7a305b7ad\AndroidManifest.xml:20:5-44
MERGED from [com.google.android.gms:play-services-measurement-api:16.0.3] C:\Users\user\.gradle\caches\transforms-1\files-1.1\play-services-measurement-api-16.0.3.aar\8666fe9d6f7740ea5850bfd7a305b7ad\AndroidManifest.xml:20:5-44
MERGED from [com.google.firebase:firebase-abt:16.0.1] C:\Users\user\.gradle\caches\transforms-1\files-1.1\firebase-abt-16.0.1.aar\9bcf578a60104d8305333c3d38041097\AndroidManifest.xml:5:5-44
MERGED from [com.google.firebase:firebase-abt:16.0.1] C:\Users\user\.gradle\caches\transforms-1\files-1.1\firebase-abt-16.0.1.aar\9bcf578a60104d8305333c3d38041097\AndroidManifest.xml:5:5-44
MERGED from [com.google.firebase:firebase-analytics-impl:16.2.3] C:\Users\user\.gradle\caches\transforms-1\files-1.1\firebase-analytics-impl-16.2.3.aar\dd01fbcba4b0ae3501e18b2fea8caba1\AndroidManifest.xml:20:5-44
MERGED from [com.google.firebase:firebase-analytics-impl:16.2.3] C:\Users\user\.gradle\caches\transforms-1\files-1.1\firebase-analytics-impl-16.2.3.aar\dd01fbcba4b0ae3501e18b2fea8caba1\AndroidManifest.xml:20:5-44
MERGED from [com.google.firebase:firebase-iid:17.0.4] C:\Users\user\.gradle\caches\transforms-1\files-1.1\firebase-iid-17.0.4.aar\ccc24ca30d78d8c9771d246b1ee57807\AndroidManifest.xml:20:5-44
MERGED from [com.google.firebase:firebase-iid:17.0.4] C:\Users\user\.gradle\caches\transforms-1\files-1.1\firebase-iid-17.0.4.aar\ccc24ca30d78d8c9771d246b1ee57807\AndroidManifest.xml:20:5-44
MERGED from [com.google.firebase:firebase-iid-interop:16.0.1] C:\Users\user\.gradle\caches\transforms-1\files-1.1\firebase-iid-interop-16.0.1.aar\9ed5c05640721475d66fe01704fac28a\AndroidManifest.xml:5:5-44
MERGED from [com.google.firebase:firebase-iid-interop:16.0.1] C:\Users\user\.gradle\caches\transforms-1\files-1.1\firebase-iid-interop-16.0.1.aar\9ed5c05640721475d66fe01704fac28a\AndroidManifest.xml:5:5-44
MERGED from [com.google.android.gms:play-services-base:16.0.1] C:\Users\user\.gradle\caches\transforms-1\files-1.1\play-services-base-16.0.1.aar\3f0d613d5baf263b8cfc1794013f2b4a\AndroidManifest.xml:20:5-44
MERGED from [com.google.android.gms:play-services-base:16.0.1] C:\Users\user\.gradle\caches\transforms-1\files-1.1\play-services-base-16.0.1.aar\3f0d613d5baf263b8cfc1794013f2b4a\AndroidManifest.xml:20:5-44
MERGED from [com.google.firebase:firebase-common:16.0.3] C:\Users\user\.gradle\caches\transforms-1\files-1.1\firebase-common-16.0.3.aar\4551ec3546594dd8d1c4753b29872788\AndroidManifest.xml:5:5-7:41
MERGED from [com.google.firebase:firebase-common:16.0.3] C:\Users\user\.gradle\caches\transforms-1\files-1.1\firebase-common-16.0.3.aar\4551ec3546594dd8d1c4753b29872788\AndroidManifest.xml:5:5-7:41
MERGED from [com.google.android.gms:play-services-tasks:16.0.1] C:\Users\user\.gradle\caches\transforms-1\files-1.1\play-services-tasks-16.0.1.aar\df67dd3b429a5e83d7f6f8b5aa28af27\AndroidManifest.xml:5:5-44
MERGED from [com.google.android.gms:play-services-tasks:16.0.1] C:\Users\user\.gradle\caches\transforms-1\files-1.1\play-services-tasks-16.0.1.aar\df67dd3b429a5e83d7f6f8b5aa28af27\AndroidManifest.xml:5:5-44
MERGED from [com.google.android.gms:play-services-ads-identifier:16.0.0] C:\Users\user\.gradle\caches\transforms-1\files-1.1\play-services-ads-identifier-16.0.0.aar\a2006fe1e3291a77c0d408251b2d90b0\AndroidManifest.xml:20:5-44
MERGED from [com.google.android.gms:play-services-ads-identifier:16.0.0] C:\Users\user\.gradle\caches\transforms-1\files-1.1\play-services-ads-identifier-16.0.0.aar\a2006fe1e3291a77c0d408251b2d90b0\AndroidManifest.xml:20:5-44
MERGED from [com.google.android.gms:play-services-measurement-base:16.0.4] C:\Users\user\.gradle\caches\transforms-1\files-1.1\play-services-measurement-base-16.0.4.aar\72adf61211965b1e525c5db484df2e45\AndroidManifest.xml:5:5-44
MERGED from [com.google.android.gms:play-services-measurement-base:16.0.4] C:\Users\user\.gradle\caches\transforms-1\files-1.1\play-services-measurement-base-16.0.4.aar\72adf61211965b1e525c5db484df2e45\AndroidManifest.xml:5:5-44
MERGED from [com.google.android.gms:play-services-stats:16.0.1] C:\Users\user\.gradle\caches\transforms-1\files-1.1\play-services-stats-16.0.1.aar\f312581797eb8f8acf261be8f15828f9\AndroidManifest.xml:5:5-44
MERGED from [com.google.android.gms:play-services-stats:16.0.1] C:\Users\user\.gradle\caches\transforms-1\files-1.1\play-services-stats-16.0.1.aar\f312581797eb8f8acf261be8f15828f9\AndroidManifest.xml:5:5-44
MERGED from [com.google.firebase:firebase-measurement-connector:17.0.1] C:\Users\user\.gradle\caches\transforms-1\files-1.1\firebase-measurement-connector-17.0.1.aar\0015823e0ab2d8b9d940e7babbd6a417\AndroidManifest.xml:20:5-44
MERGED from [com.google.firebase:firebase-measurement-connector:17.0.1] C:\Users\user\.gradle\caches\transforms-1\files-1.1\firebase-measurement-connector-17.0.1.aar\0015823e0ab2d8b9d940e7babbd6a417\AndroidManifest.xml:20:5-44
MERGED from [com.google.android.gms:play-services-basement:16.1.0] C:\Users\user\.gradle\caches\transforms-1\files-1.1\play-services-basement-16.1.0.aar\5994aab45f01c7ef89f8302f5c4ab412\AndroidManifest.xml:20:5-44
MERGED from [com.google.android.gms:play-services-basement:16.1.0] C:\Users\user\.gradle\caches\transforms-1\files-1.1\play-services-basement-16.1.0.aar\5994aab45f01c7ef89f8302f5c4ab412\AndroidManifest.xml:20:5-44
MERGED from [com.android.support:support-v4:26.1.0] C:\Users\user\.gradle\caches\transforms-1\files-1.1\support-v4-26.1.0.aar\897c9d690feb9ddd4fe2d5216f4c8d83\AndroidManifest.xml:21:5-23:54
MERGED from [com.android.support:support-v4:26.1.0] C:\Users\user\.gradle\caches\transforms-1\files-1.1\support-v4-26.1.0.aar\897c9d690feb9ddd4fe2d5216f4c8d83\AndroidManifest.xml:21:5-23:54
MERGED from [:CordovaLib] D:\Desarrollos2018\cmex-voluntariados-app\platforms\android\CordovaLib\build\intermediates\manifests\full\debug\AndroidManifest.xml:25:5-44
MERGED from [:CordovaLib] D:\Desarrollos2018\cmex-voluntariados-app\platforms\android\CordovaLib\build\intermediates\manifests\full\debug\AndroidManifest.xml:25:5-44
MERGED from [com.crashlytics.sdk.android:beta:1.2.7] C:\Users\user\.gradle\caches\transforms-1\files-1.1\beta-1.2.7.aar\63c94eb7b9e4edbecef0dc10f1dc2364\AndroidManifest.xml:7:5-43
MERGED from [com.crashlytics.sdk.android:beta:1.2.7] C:\Users\user\.gradle\caches\transforms-1\files-1.1\beta-1.2.7.aar\63c94eb7b9e4edbecef0dc10f1dc2364\AndroidManifest.xml:7:5-43
MERGED from [com.crashlytics.sdk.android:crashlytics-core:2.6.1] C:\Users\user\.gradle\caches\transforms-1\files-1.1\crashlytics-core-2.6.1.aar\87fb73dde2c93f6d125ce1b32013bc01\AndroidManifest.xml:50:5-43
MERGED from [com.crashlytics.sdk.android:crashlytics-core:2.6.1] C:\Users\user\.gradle\caches\transforms-1\files-1.1\crashlytics-core-2.6.1.aar\87fb73dde2c93f6d125ce1b32013bc01\AndroidManifest.xml:50:5-43
MERGED from [com.crashlytics.sdk.android:answers:1.4.1] C:\Users\user\.gradle\caches\transforms-1\files-1.1\answers-1.4.1.aar\ccd766ca74e78ded4780b851e522508e\AndroidManifest.xml:7:5-43
MERGED from [com.crashlytics.sdk.android:answers:1.4.1] C:\Users\user\.gradle\caches\transforms-1\files-1.1\answers-1.4.1.aar\ccd766ca74e78ded4780b851e522508e\AndroidManifest.xml:7:5-43
MERGED from [io.fabric.sdk.android:fabric:1.4.2] C:\Users\user\.gradle\caches\transforms-1\files-1.1\fabric-1.4.2.aar\fcf01288b6937b196e3d1c9eb798a36e\AndroidManifest.xml:27:5-43
MERGED from [io.fabric.sdk.android:fabric:1.4.2] C:\Users\user\.gradle\caches\transforms-1\files-1.1\fabric-1.4.2.aar\fcf01288b6937b196e3d1c9eb798a36e\AndroidManifest.xml:27:5-43
MERGED from [com.android.support:support-media-compat:26.1.0] C:\Users\user\.gradle\caches\transforms-1\files-1.1\support-media-compat-26.1.0.aar\2357aedf1fc2f5c8718d838d9597738a\AndroidManifest.xml:21:5-23:63
MERGED from [com.android.support:support-media-compat:26.1.0] C:\Users\user\.gradle\caches\transforms-1\files-1.1\support-media-compat-26.1.0.aar\2357aedf1fc2f5c8718d838d9597738a\AndroidManifest.xml:21:5-23:63
MERGED from [com.android.support:support-fragment:26.1.0] C:\Users\user\.gradle\caches\transforms-1\files-1.1\support-fragment-26.1.0.aar\656f6ad9e8dcea2e2a2f962a9bec8dbe\AndroidManifest.xml:21:5-23:60
MERGED from [com.android.support:support-fragment:26.1.0] C:\Users\user\.gradle\caches\transforms-1\files-1.1\support-fragment-26.1.0.aar\656f6ad9e8dcea2e2a2f962a9bec8dbe\AndroidManifest.xml:21:5-23:60
MERGED from [com.android.support:support-core-utils:26.1.0] C:\Users\user\.gradle\caches\transforms-1\files-1.1\support-core-utils-26.1.0.aar\641ea27d1b129720e7f52858e50a365c\AndroidManifest.xml:21:5-23:61
MERGED from [com.android.support:support-core-utils:26.1.0] C:\Users\user\.gradle\caches\transforms-1\files-1.1\support-core-utils-26.1.0.aar\641ea27d1b129720e7f52858e50a365c\AndroidManifest.xml:21:5-23:61
MERGED from [com.android.support:support-core-ui:26.1.0] C:\Users\user\.gradle\caches\transforms-1\files-1.1\support-core-ui-26.1.0.aar\c9329f040b5f8db35dc3b7ee0d2dcb62\AndroidManifest.xml:21:5-23:58
MERGED from [com.android.support:support-core-ui:26.1.0] C:\Users\user\.gradle\caches\transforms-1\files-1.1\support-core-ui-26.1.0.aar\c9329f040b5f8db35dc3b7ee0d2dcb62\AndroidManifest.xml:21:5-23:58
MERGED from [com.android.support:support-compat:26.1.0] C:\Users\user\.gradle\caches\transforms-1\files-1.1\support-compat-26.1.0.aar\1bfeb849a2a3e447ceb0a9cc55641f10\AndroidManifest.xml:21:5-23:58
MERGED from [com.android.support:support-compat:26.1.0] C:\Users\user\.gradle\caches\transforms-1\files-1.1\support-compat-26.1.0.aar\1bfeb849a2a3e447ceb0a9cc55641f10\AndroidManifest.xml:21:5-23:58
MERGED from [android.arch.lifecycle:runtime:1.0.0] C:\Users\user\.gradle\caches\transforms-1\files-1.1\runtime-1.0.0.aar\5db221d472fb81a752475a53cb963055\AndroidManifest.xml:20:5-22:41
MERGED from [android.arch.lifecycle:runtime:1.0.0] C:\Users\user\.gradle\caches\transforms-1\files-1.1\runtime-1.0.0.aar\5db221d472fb81a752475a53cb963055\AndroidManifest.xml:20:5-22:41
	tools:overrideLibrary
		ADDED from [com.android.support:support-v4:26.1.0] C:\Users\user\.gradle\caches\transforms-1\files-1.1\support-v4-26.1.0.aar\897c9d690feb9ddd4fe2d5216f4c8d83\AndroidManifest.xml:23:9-51
	android:targetSdkVersion
		ADDED from D:\Desarrollos2018\cmex-voluntariados-app\platforms\android\app\src\main\AndroidManifest.xml:36:42-71
	android:minSdkVersion
		ADDED from D:\Desarrollos2018\cmex-voluntariados-app\platforms\android\app\src\main\AndroidManifest.xml:36:15-41
uses-permission#android.permission.ACCESS_NETWORK_STATE
ADDED from D:\Desarrollos2018\cmex-voluntariados-app\platforms\android\app\src\main\AndroidManifest.xml:37:5-79
MERGED from [com.google.android.gms:play-services-analytics-impl:16.0.5] C:\Users\user\.gradle\caches\transforms-1\files-1.1\play-services-analytics-impl-16.0.5.aar\e17dc41e1d429e76fe0b9d8050aeb69a\AndroidManifest.xml:24:5-79
MERGED from [com.google.android.gms:play-services-analytics-impl:16.0.5] C:\Users\user\.gradle\caches\transforms-1\files-1.1\play-services-analytics-impl-16.0.5.aar\e17dc41e1d429e76fe0b9d8050aeb69a\AndroidManifest.xml:24:5-79
MERGED from [com.google.firebase:firebase-measurement-connector-impl:17.0.3] C:\Users\user\.gradle\caches\transforms-1\files-1.1\firebase-measurement-connector-impl-17.0.3.aar\525989c29bcf9fae2b82b442f8de3d39\AndroidManifest.xml:23:5-79
MERGED from [com.google.firebase:firebase-measurement-connector-impl:17.0.3] C:\Users\user\.gradle\caches\transforms-1\files-1.1\firebase-measurement-connector-impl-17.0.3.aar\525989c29bcf9fae2b82b442f8de3d39\AndroidManifest.xml:23:5-79
MERGED from [com.google.android.gms:play-services-tagmanager-api:16.0.5] C:\Users\user\.gradle\caches\transforms-1\files-1.1\play-services-tagmanager-api-16.0.5.aar\6ae2a2eaa9c22c62dd2edef9da1423d5\AndroidManifest.xml:24:5-79
MERGED from [com.google.android.gms:play-services-tagmanager-api:16.0.5] C:\Users\user\.gradle\caches\transforms-1\files-1.1\play-services-tagmanager-api-16.0.5.aar\6ae2a2eaa9c22c62dd2edef9da1423d5\AndroidManifest.xml:24:5-79
MERGED from [com.google.firebase:firebase-analytics:16.0.5] C:\Users\user\.gradle\caches\transforms-1\files-1.1\firebase-analytics-16.0.5.aar\3236af78c5211b01373853356a5a85f9\AndroidManifest.xml:24:5-79
MERGED from [com.google.firebase:firebase-analytics:16.0.5] C:\Users\user\.gradle\caches\transforms-1\files-1.1\firebase-analytics-16.0.5.aar\3236af78c5211b01373853356a5a85f9\AndroidManifest.xml:24:5-79
MERGED from [com.google.firebase:firebase-analytics-impl:16.2.3] C:\Users\user\.gradle\caches\transforms-1\files-1.1\firebase-analytics-impl-16.2.3.aar\dd01fbcba4b0ae3501e18b2fea8caba1\AndroidManifest.xml:24:5-79
MERGED from [com.google.firebase:firebase-analytics-impl:16.2.3] C:\Users\user\.gradle\caches\transforms-1\files-1.1\firebase-analytics-impl-16.2.3.aar\dd01fbcba4b0ae3501e18b2fea8caba1\AndroidManifest.xml:24:5-79
MERGED from [com.google.firebase:firebase-iid:17.0.4] C:\Users\user\.gradle\caches\transforms-1\files-1.1\firebase-iid-17.0.4.aar\ccc24ca30d78d8c9771d246b1ee57807\AndroidManifest.xml:22:5-79
MERGED from [com.google.firebase:firebase-iid:17.0.4] C:\Users\user\.gradle\caches\transforms-1\files-1.1\firebase-iid-17.0.4.aar\ccc24ca30d78d8c9771d246b1ee57807\AndroidManifest.xml:22:5-79
	android:name
		ADDED from D:\Desarrollos2018\cmex-voluntariados-app\platforms\android\app\src\main\AndroidManifest.xml:37:22-76
uses-permission#android.permission.WAKE_LOCK
ADDED from D:\Desarrollos2018\cmex-voluntariados-app\platforms\android\app\src\main\AndroidManifest.xml:38:5-68
MERGED from [com.google.android.gms:play-services-analytics-impl:16.0.5] C:\Users\user\.gradle\caches\transforms-1\files-1.1\play-services-analytics-impl-16.0.5.aar\e17dc41e1d429e76fe0b9d8050aeb69a\AndroidManifest.xml:27:5-68
MERGED from [com.google.android.gms:play-services-analytics-impl:16.0.5] C:\Users\user\.gradle\caches\transforms-1\files-1.1\play-services-analytics-impl-16.0.5.aar\e17dc41e1d429e76fe0b9d8050aeb69a\AndroidManifest.xml:27:5-68
MERGED from [com.google.firebase:firebase-measurement-connector-impl:17.0.3] C:\Users\user\.gradle\caches\transforms-1\files-1.1\firebase-measurement-connector-impl-17.0.3.aar\525989c29bcf9fae2b82b442f8de3d39\AndroidManifest.xml:24:5-68
MERGED from [com.google.firebase:firebase-measurement-connector-impl:17.0.3] C:\Users\user\.gradle\caches\transforms-1\files-1.1\firebase-measurement-connector-impl-17.0.3.aar\525989c29bcf9fae2b82b442f8de3d39\AndroidManifest.xml:24:5-68
MERGED from [com.google.firebase:firebase-analytics:16.0.5] C:\Users\user\.gradle\caches\transforms-1\files-1.1\firebase-analytics-16.0.5.aar\3236af78c5211b01373853356a5a85f9\AndroidManifest.xml:25:5-68
MERGED from [com.google.firebase:firebase-analytics:16.0.5] C:\Users\user\.gradle\caches\transforms-1\files-1.1\firebase-analytics-16.0.5.aar\3236af78c5211b01373853356a5a85f9\AndroidManifest.xml:25:5-68
MERGED from [com.google.firebase:firebase-analytics-impl:16.2.3] C:\Users\user\.gradle\caches\transforms-1\files-1.1\firebase-analytics-impl-16.2.3.aar\dd01fbcba4b0ae3501e18b2fea8caba1\AndroidManifest.xml:25:5-68
MERGED from [com.google.firebase:firebase-analytics-impl:16.2.3] C:\Users\user\.gradle\caches\transforms-1\files-1.1\firebase-analytics-impl-16.2.3.aar\dd01fbcba4b0ae3501e18b2fea8caba1\AndroidManifest.xml:25:5-68
MERGED from [com.google.firebase:firebase-iid:17.0.4] C:\Users\user\.gradle\caches\transforms-1\files-1.1\firebase-iid-17.0.4.aar\ccc24ca30d78d8c9771d246b1ee57807\AndroidManifest.xml:24:5-68
MERGED from [com.google.firebase:firebase-iid:17.0.4] C:\Users\user\.gradle\caches\transforms-1\files-1.1\firebase-iid-17.0.4.aar\ccc24ca30d78d8c9771d246b1ee57807\AndroidManifest.xml:24:5-68
	android:name
		ADDED from D:\Desarrollos2018\cmex-voluntariados-app\platforms\android\app\src\main\AndroidManifest.xml:38:22-65
uses-permission#android.permission.WRITE_EXTERNAL_STORAGE
ADDED from D:\Desarrollos2018\cmex-voluntariados-app\platforms\android\app\src\main\AndroidManifest.xml:39:5-81
	android:name
		ADDED from D:\Desarrollos2018\cmex-voluntariados-app\platforms\android\app\src\main\AndroidManifest.xml:39:22-78
meta-data#android.support.FILE_PROVIDER_PATHS
ADDED from D:\Desarrollos2018\cmex-voluntariados-app\platforms\android\app\src\main\AndroidManifest.xml:30:13-115
	android:resource
		ADDED from D:\Desarrollos2018\cmex-voluntariados-app\platforms\android\app\src\main\AndroidManifest.xml:30:75-112
	android:name
		ADDED from D:\Desarrollos2018\cmex-voluntariados-app\platforms\android\app\src\main\AndroidManifest.xml:30:24-74
uses-permission#com.sec.android.provider.badge.permission.READ
ADDED from [me.leolin:ShortcutBadger:1.1.4] C:\Users\user\.gradle\caches\transforms-1\files-1.1\ShortcutBadger-1.1.4.aar\c2d0e2423cff09ce9f1145a8287bb052\AndroidManifest.xml:19:5-86
	android:name
		ADDED from [me.leolin:ShortcutBadger:1.1.4] C:\Users\user\.gradle\caches\transforms-1\files-1.1\ShortcutBadger-1.1.4.aar\c2d0e2423cff09ce9f1145a8287bb052\AndroidManifest.xml:19:22-83
uses-permission#com.sec.android.provider.badge.permission.WRITE
ADDED from [me.leolin:ShortcutBadger:1.1.4] C:\Users\user\.gradle\caches\transforms-1\files-1.1\ShortcutBadger-1.1.4.aar\c2d0e2423cff09ce9f1145a8287bb052\AndroidManifest.xml:20:5-87
	android:name
		ADDED from [me.leolin:ShortcutBadger:1.1.4] C:\Users\user\.gradle\caches\transforms-1\files-1.1\ShortcutBadger-1.1.4.aar\c2d0e2423cff09ce9f1145a8287bb052\AndroidManifest.xml:20:22-84
uses-permission#com.htc.launcher.permission.READ_SETTINGS
ADDED from [me.leolin:ShortcutBadger:1.1.4] C:\Users\user\.gradle\caches\transforms-1\files-1.1\ShortcutBadger-1.1.4.aar\c2d0e2423cff09ce9f1145a8287bb052\AndroidManifest.xml:23:5-81
	android:name
		ADDED from [me.leolin:ShortcutBadger:1.1.4] C:\Users\user\.gradle\caches\transforms-1\files-1.1\ShortcutBadger-1.1.4.aar\c2d0e2423cff09ce9f1145a8287bb052\AndroidManifest.xml:23:22-78
uses-permission#com.htc.launcher.permission.UPDATE_SHORTCUT
ADDED from [me.leolin:ShortcutBadger:1.1.4] C:\Users\user\.gradle\caches\transforms-1\files-1.1\ShortcutBadger-1.1.4.aar\c2d0e2423cff09ce9f1145a8287bb052\AndroidManifest.xml:24:5-83
	android:name
		ADDED from [me.leolin:ShortcutBadger:1.1.4] C:\Users\user\.gradle\caches\transforms-1\files-1.1\ShortcutBadger-1.1.4.aar\c2d0e2423cff09ce9f1145a8287bb052\AndroidManifest.xml:24:22-80
uses-permission#com.sonyericsson.home.permission.BROADCAST_BADGE
ADDED from [me.leolin:ShortcutBadger:1.1.4] C:\Users\user\.gradle\caches\transforms-1\files-1.1\ShortcutBadger-1.1.4.aar\c2d0e2423cff09ce9f1145a8287bb052\AndroidManifest.xml:27:5-88
	android:name
		ADDED from [me.leolin:ShortcutBadger:1.1.4] C:\Users\user\.gradle\caches\transforms-1\files-1.1\ShortcutBadger-1.1.4.aar\c2d0e2423cff09ce9f1145a8287bb052\AndroidManifest.xml:27:22-85
uses-permission#com.anddoes.launcher.permission.UPDATE_COUNT
ADDED from [me.leolin:ShortcutBadger:1.1.4] C:\Users\user\.gradle\caches\transforms-1\files-1.1\ShortcutBadger-1.1.4.aar\c2d0e2423cff09ce9f1145a8287bb052\AndroidManifest.xml:30:5-84
	android:name
		ADDED from [me.leolin:ShortcutBadger:1.1.4] C:\Users\user\.gradle\caches\transforms-1\files-1.1\ShortcutBadger-1.1.4.aar\c2d0e2423cff09ce9f1145a8287bb052\AndroidManifest.xml:30:22-81
uses-permission#com.majeur.launcher.permission.UPDATE_BADGE
ADDED from [me.leolin:ShortcutBadger:1.1.4] C:\Users\user\.gradle\caches\transforms-1\files-1.1\ShortcutBadger-1.1.4.aar\c2d0e2423cff09ce9f1145a8287bb052\AndroidManifest.xml:33:5-83
	android:name
		ADDED from [me.leolin:ShortcutBadger:1.1.4] C:\Users\user\.gradle\caches\transforms-1\files-1.1\ShortcutBadger-1.1.4.aar\c2d0e2423cff09ce9f1145a8287bb052\AndroidManifest.xml:33:22-80
activity#com.google.firebase.auth.internal.FederatedSignInActivity
ADDED from [com.google.firebase:firebase-auth:16.0.5] C:\Users\user\.gradle\caches\transforms-1\files-1.1\firebase-auth-16.0.5.aar\6a65c2dbcaac7729374ad3eda97731b7\AndroidManifest.xml:24:9-31:50
	android:excludeFromRecents
		ADDED from [com.google.firebase:firebase-auth:16.0.5] C:\Users\user\.gradle\caches\transforms-1\files-1.1\firebase-auth-16.0.5.aar\6a65c2dbcaac7729374ad3eda97731b7\AndroidManifest.xml:26:13-46
	android:launchMode
		ADDED from [com.google.firebase:firebase-auth:16.0.5] C:\Users\user\.gradle\caches\transforms-1\files-1.1\firebase-auth-16.0.5.aar\6a65c2dbcaac7729374ad3eda97731b7\AndroidManifest.xml:28:13-44
	android:exported
		ADDED from [com.google.firebase:firebase-auth:16.0.5] C:\Users\user\.gradle\caches\transforms-1\files-1.1\firebase-auth-16.0.5.aar\6a65c2dbcaac7729374ad3eda97731b7\AndroidManifest.xml:27:13-36
	android:permission
		ADDED from [com.google.firebase:firebase-auth:16.0.5] C:\Users\user\.gradle\caches\transforms-1\files-1.1\firebase-auth-16.0.5.aar\6a65c2dbcaac7729374ad3eda97731b7\AndroidManifest.xml:29:13-102
	android:theme
		ADDED from [com.google.firebase:firebase-auth:16.0.5] C:\Users\user\.gradle\caches\transforms-1\files-1.1\firebase-auth-16.0.5.aar\6a65c2dbcaac7729374ad3eda97731b7\AndroidManifest.xml:30:13-72
	tools:replace
		ADDED from [com.google.firebase:firebase-auth:16.0.5] C:\Users\user\.gradle\caches\transforms-1\files-1.1\firebase-auth-16.0.5.aar\6a65c2dbcaac7729374ad3eda97731b7\AndroidManifest.xml:31:13-47
	android:name
		ADDED from [com.google.firebase:firebase-auth:16.0.5] C:\Users\user\.gradle\caches\transforms-1\files-1.1\firebase-auth-16.0.5.aar\6a65c2dbcaac7729374ad3eda97731b7\AndroidManifest.xml:25:13-85
service#com.google.firebase.components.ComponentDiscoveryService
ADDED from [com.google.firebase:firebase-auth:16.0.5] C:\Users\user\.gradle\caches\transforms-1\files-1.1\firebase-auth-16.0.5.aar\6a65c2dbcaac7729374ad3eda97731b7\AndroidManifest.xml:33:9-39:19
MERGED from [com.google.firebase:firebase-perf:16.2.1] C:\Users\user\.gradle\caches\transforms-1\files-1.1\firebase-perf-16.2.1.aar\bee5f54b0eac5a2fa1f8af9ce474d2b3\AndroidManifest.xml:34:9-38:19
MERGED from [com.google.firebase:firebase-perf:16.2.1] C:\Users\user\.gradle\caches\transforms-1\files-1.1\firebase-perf-16.2.1.aar\bee5f54b0eac5a2fa1f8af9ce474d2b3\AndroidManifest.xml:34:9-38:19
MERGED from [com.google.firebase:firebase-measurement-connector-impl:17.0.3] C:\Users\user\.gradle\caches\transforms-1\files-1.1\firebase-measurement-connector-impl-17.0.3.aar\525989c29bcf9fae2b82b442f8de3d39\AndroidManifest.xml:27:9-31:19
MERGED from [com.google.firebase:firebase-measurement-connector-impl:17.0.3] C:\Users\user\.gradle\caches\transforms-1\files-1.1\firebase-measurement-connector-impl-17.0.3.aar\525989c29bcf9fae2b82b442f8de3d39\AndroidManifest.xml:27:9-31:19
MERGED from [com.google.firebase:firebase-iid:17.0.4] C:\Users\user\.gradle\caches\transforms-1\files-1.1\firebase-iid-17.0.4.aar\ccc24ca30d78d8c9771d246b1ee57807\AndroidManifest.xml:29:9-35:19
MERGED from [com.google.firebase:firebase-iid:17.0.4] C:\Users\user\.gradle\caches\transforms-1\files-1.1\firebase-iid-17.0.4.aar\ccc24ca30d78d8c9771d246b1ee57807\AndroidManifest.xml:29:9-35:19
	android:exported
		ADDED from [com.google.firebase:firebase-auth:16.0.5] C:\Users\user\.gradle\caches\transforms-1\files-1.1\firebase-auth-16.0.5.aar\6a65c2dbcaac7729374ad3eda97731b7\AndroidManifest.xml:35:13-37
	android:name
		ADDED from [com.google.firebase:firebase-auth:16.0.5] C:\Users\user\.gradle\caches\transforms-1\files-1.1\firebase-auth-16.0.5.aar\6a65c2dbcaac7729374ad3eda97731b7\AndroidManifest.xml:34:13-84
meta-data#com.google.firebase.components:com.google.firebase.auth.FirebaseAuthRegistrar
ADDED from [com.google.firebase:firebase-auth:16.0.5] C:\Users\user\.gradle\caches\transforms-1\files-1.1\firebase-auth-16.0.5.aar\6a65c2dbcaac7729374ad3eda97731b7\AndroidManifest.xml:36:13-38:85
	android:value
		ADDED from [com.google.firebase:firebase-auth:16.0.5] C:\Users\user\.gradle\caches\transforms-1\files-1.1\firebase-auth-16.0.5.aar\6a65c2dbcaac7729374ad3eda97731b7\AndroidManifest.xml:38:17-82
	android:name
		ADDED from [com.google.firebase:firebase-auth:16.0.5] C:\Users\user\.gradle\caches\transforms-1\files-1.1\firebase-auth-16.0.5.aar\6a65c2dbcaac7729374ad3eda97731b7\AndroidManifest.xml:37:17-109
provider#com.crashlytics.android.CrashlyticsInitProvider
ADDED from [com.crashlytics.sdk.android:crashlytics:2.9.1] C:\Users\user\.gradle\caches\transforms-1\files-1.1\crashlytics-2.9.1.aar\8668cf8785b86b5d790990dba23fa740\AndroidManifest.xml:12:9-16:39
	android:authorities
		ADDED from [com.crashlytics.sdk.android:crashlytics:2.9.1] C:\Users\user\.gradle\caches\transforms-1\files-1.1\crashlytics-2.9.1.aar\8668cf8785b86b5d790990dba23fa740\AndroidManifest.xml:14:13-75
	android:exported
		ADDED from [com.crashlytics.sdk.android:crashlytics:2.9.1] C:\Users\user\.gradle\caches\transforms-1\files-1.1\crashlytics-2.9.1.aar\8668cf8785b86b5d790990dba23fa740\AndroidManifest.xml:15:13-37
	android:initOrder
		ADDED from [com.crashlytics.sdk.android:crashlytics:2.9.1] C:\Users\user\.gradle\caches\transforms-1\files-1.1\crashlytics-2.9.1.aar\8668cf8785b86b5d790990dba23fa740\AndroidManifest.xml:16:13-36
	android:name
		ADDED from [com.crashlytics.sdk.android:crashlytics:2.9.1] C:\Users\user\.gradle\caches\transforms-1\files-1.1\crashlytics-2.9.1.aar\8668cf8785b86b5d790990dba23fa740\AndroidManifest.xml:13:13-75
service#com.google.firebase.messaging.FirebaseMessagingService
ADDED from [com.google.firebase:firebase-messaging:17.3.4] C:\Users\user\.gradle\caches\transforms-1\files-1.1\firebase-messaging-17.3.4.aar\02e603b24960c0f80c35406d63a0b20f\AndroidManifest.xml:28:9-34:19
	android:exported
		ADDED from [com.google.firebase:firebase-messaging:17.3.4] C:\Users\user\.gradle\caches\transforms-1\files-1.1\firebase-messaging-17.3.4.aar\02e603b24960c0f80c35406d63a0b20f\AndroidManifest.xml:30:13-36
	android:name
		ADDED from [com.google.firebase:firebase-messaging:17.3.4] C:\Users\user\.gradle\caches\transforms-1\files-1.1\firebase-messaging-17.3.4.aar\02e603b24960c0f80c35406d63a0b20f\AndroidManifest.xml:29:13-82
uses-permission#com.google.android.providers.gsf.permission.READ_GSERVICES
ADDED from [com.google.firebase:firebase-perf:16.2.1] C:\Users\user\.gradle\caches\transforms-1\files-1.1\firebase-perf-16.2.1.aar\bee5f54b0eac5a2fa1f8af9ce474d2b3\AndroidManifest.xml:23:5-98
	android:name
		ADDED from [com.google.firebase:firebase-perf:16.2.1] C:\Users\user\.gradle\caches\transforms-1\files-1.1\firebase-perf-16.2.1.aar\bee5f54b0eac5a2fa1f8af9ce474d2b3\AndroidManifest.xml:23:22-95
provider#com.google.firebase.perf.provider.FirebasePerfProvider
ADDED from [com.google.firebase:firebase-perf:16.2.1] C:\Users\user\.gradle\caches\transforms-1\files-1.1\firebase-perf-16.2.1.aar\bee5f54b0eac5a2fa1f8af9ce474d2b3\AndroidManifest.xml:28:9-32:39
	android:authorities
		ADDED from [com.google.firebase:firebase-perf:16.2.1] C:\Users\user\.gradle\caches\transforms-1\files-1.1\firebase-perf-16.2.1.aar\bee5f54b0eac5a2fa1f8af9ce474d2b3\AndroidManifest.xml:30:13-72
	android:exported
		ADDED from [com.google.firebase:firebase-perf:16.2.1] C:\Users\user\.gradle\caches\transforms-1\files-1.1\firebase-perf-16.2.1.aar\bee5f54b0eac5a2fa1f8af9ce474d2b3\AndroidManifest.xml:31:13-37
	android:initOrder
		ADDED from [com.google.firebase:firebase-perf:16.2.1] C:\Users\user\.gradle\caches\transforms-1\files-1.1\firebase-perf-16.2.1.aar\bee5f54b0eac5a2fa1f8af9ce474d2b3\AndroidManifest.xml:32:13-36
	android:name
		ADDED from [com.google.firebase:firebase-perf:16.2.1] C:\Users\user\.gradle\caches\transforms-1\files-1.1\firebase-perf-16.2.1.aar\bee5f54b0eac5a2fa1f8af9ce474d2b3\AndroidManifest.xml:29:13-82
meta-data#com.google.firebase.components:com.google.firebase.perf.component.FirebasePerfRegistrar
ADDED from [com.google.firebase:firebase-perf:16.2.1] C:\Users\user\.gradle\caches\transforms-1\files-1.1\firebase-perf-16.2.1.aar\bee5f54b0eac5a2fa1f8af9ce474d2b3\AndroidManifest.xml:35:13-37:85
	android:value
		ADDED from [com.google.firebase:firebase-perf:16.2.1] C:\Users\user\.gradle\caches\transforms-1\files-1.1\firebase-perf-16.2.1.aar\bee5f54b0eac5a2fa1f8af9ce474d2b3\AndroidManifest.xml:37:17-82
	android:name
		ADDED from [com.google.firebase:firebase-perf:16.2.1] C:\Users\user\.gradle\caches\transforms-1\files-1.1\firebase-perf-16.2.1.aar\bee5f54b0eac5a2fa1f8af9ce474d2b3\AndroidManifest.xml:36:17-119
meta-data#com.google.firebase.components:com.google.firebase.analytics.connector.internal.AnalyticsConnectorRegistrar
ADDED from [com.google.firebase:firebase-measurement-connector-impl:17.0.3] C:\Users\user\.gradle\caches\transforms-1\files-1.1\firebase-measurement-connector-impl-17.0.3.aar\525989c29bcf9fae2b82b442f8de3d39\AndroidManifest.xml:28:13-30:85
	android:value
		ADDED from [com.google.firebase:firebase-measurement-connector-impl:17.0.3] C:\Users\user\.gradle\caches\transforms-1\files-1.1\firebase-measurement-connector-impl-17.0.3.aar\525989c29bcf9fae2b82b442f8de3d39\AndroidManifest.xml:30:17-82
	android:name
		ADDED from [com.google.firebase:firebase-measurement-connector-impl:17.0.3] C:\Users\user\.gradle\caches\transforms-1\files-1.1\firebase-measurement-connector-impl-17.0.3.aar\525989c29bcf9fae2b82b442f8de3d39\AndroidManifest.xml:29:17-139
service#com.google.android.gms.tagmanager.TagManagerService
ADDED from [com.google.android.gms:play-services-tagmanager-api:16.0.5] C:\Users\user\.gradle\caches\transforms-1\files-1.1\play-services-tagmanager-api-16.0.5.aar\6ae2a2eaa9c22c62dd2edef9da1423d5\AndroidManifest.xml:27:9-30:40
	android:enabled
		ADDED from [com.google.android.gms:play-services-tagmanager-api:16.0.5] C:\Users\user\.gradle\caches\transforms-1\files-1.1\play-services-tagmanager-api-16.0.5.aar\6ae2a2eaa9c22c62dd2edef9da1423d5\AndroidManifest.xml:29:13-35
	android:exported
		ADDED from [com.google.android.gms:play-services-tagmanager-api:16.0.5] C:\Users\user\.gradle\caches\transforms-1\files-1.1\play-services-tagmanager-api-16.0.5.aar\6ae2a2eaa9c22c62dd2edef9da1423d5\AndroidManifest.xml:30:13-37
	android:name
		ADDED from [com.google.android.gms:play-services-tagmanager-api:16.0.5] C:\Users\user\.gradle\caches\transforms-1\files-1.1\play-services-tagmanager-api-16.0.5.aar\6ae2a2eaa9c22c62dd2edef9da1423d5\AndroidManifest.xml:28:13-79
activity#com.google.android.gms.tagmanager.TagManagerPreviewActivity
ADDED from [com.google.android.gms:play-services-tagmanager-api:16.0.5] C:\Users\user\.gradle\caches\transforms-1\files-1.1\play-services-tagmanager-api-16.0.5.aar\6ae2a2eaa9c22c62dd2edef9da1423d5\AndroidManifest.xml:32:9-44:20
	android:noHistory
		ADDED from [com.google.android.gms:play-services-tagmanager-api:16.0.5] C:\Users\user\.gradle\caches\transforms-1\files-1.1\play-services-tagmanager-api-16.0.5.aar\6ae2a2eaa9c22c62dd2edef9da1423d5\AndroidManifest.xml:35:13-37
	android:exported
		ADDED from [com.google.android.gms:play-services-tagmanager-api:16.0.5] C:\Users\user\.gradle\caches\transforms-1\files-1.1\play-services-tagmanager-api-16.0.5.aar\6ae2a2eaa9c22c62dd2edef9da1423d5\AndroidManifest.xml:34:13-36
	android:name
		ADDED from [com.google.android.gms:play-services-tagmanager-api:16.0.5] C:\Users\user\.gradle\caches\transforms-1\files-1.1\play-services-tagmanager-api-16.0.5.aar\6ae2a2eaa9c22c62dd2edef9da1423d5\AndroidManifest.xml:33:13-87
intent-filter#android.intent.action.VIEW+android.intent.category.BROWSABLE+android.intent.category.DEFAULT
ADDED from [com.google.android.gms:play-services-tagmanager-api:16.0.5] C:\Users\user\.gradle\caches\transforms-1\files-1.1\play-services-tagmanager-api-16.0.5.aar\6ae2a2eaa9c22c62dd2edef9da1423d5\AndroidManifest.xml:36:13-43:29
data
ADDED from [com.google.android.gms:play-services-tagmanager-api:16.0.5] C:\Users\user\.gradle\caches\transforms-1\files-1.1\play-services-tagmanager-api-16.0.5.aar\6ae2a2eaa9c22c62dd2edef9da1423d5\AndroidManifest.xml:37:17-72
	android:scheme
		ADDED from [com.google.android.gms:play-services-tagmanager-api:16.0.5] C:\Users\user\.gradle\caches\transforms-1\files-1.1\play-services-tagmanager-api-16.0.5.aar\6ae2a2eaa9c22c62dd2edef9da1423d5\AndroidManifest.xml:37:23-69
action#android.intent.action.VIEW
ADDED from [com.google.android.gms:play-services-tagmanager-api:16.0.5] C:\Users\user\.gradle\caches\transforms-1\files-1.1\play-services-tagmanager-api-16.0.5.aar\6ae2a2eaa9c22c62dd2edef9da1423d5\AndroidManifest.xml:39:17-69
	android:name
		ADDED from [com.google.android.gms:play-services-tagmanager-api:16.0.5] C:\Users\user\.gradle\caches\transforms-1\files-1.1\play-services-tagmanager-api-16.0.5.aar\6ae2a2eaa9c22c62dd2edef9da1423d5\AndroidManifest.xml:39:25-66
category#android.intent.category.DEFAULT
ADDED from [com.google.android.gms:play-services-tagmanager-api:16.0.5] C:\Users\user\.gradle\caches\transforms-1\files-1.1\play-services-tagmanager-api-16.0.5.aar\6ae2a2eaa9c22c62dd2edef9da1423d5\AndroidManifest.xml:41:17-76
	android:name
		ADDED from [com.google.android.gms:play-services-tagmanager-api:16.0.5] C:\Users\user\.gradle\caches\transforms-1\files-1.1\play-services-tagmanager-api-16.0.5.aar\6ae2a2eaa9c22c62dd2edef9da1423d5\AndroidManifest.xml:41:27-73
category#android.intent.category.BROWSABLE
ADDED from [com.google.android.gms:play-services-tagmanager-api:16.0.5] C:\Users\user\.gradle\caches\transforms-1\files-1.1\play-services-tagmanager-api-16.0.5.aar\6ae2a2eaa9c22c62dd2edef9da1423d5\AndroidManifest.xml:42:17-78
	android:name
		ADDED from [com.google.android.gms:play-services-tagmanager-api:16.0.5] C:\Users\user\.gradle\caches\transforms-1\files-1.1\play-services-tagmanager-api-16.0.5.aar\6ae2a2eaa9c22c62dd2edef9da1423d5\AndroidManifest.xml:42:27-75
uses-permission#com.google.android.finsky.permission.BIND_GET_INSTALL_REFERRER_SERVICE
ADDED from [com.google.firebase:firebase-analytics:16.0.5] C:\Users\user\.gradle\caches\transforms-1\files-1.1\firebase-analytics-16.0.5.aar\3236af78c5211b01373853356a5a85f9\AndroidManifest.xml:26:5-110
MERGED from [com.google.firebase:firebase-analytics-impl:16.2.3] C:\Users\user\.gradle\caches\transforms-1\files-1.1\firebase-analytics-impl-16.2.3.aar\dd01fbcba4b0ae3501e18b2fea8caba1\AndroidManifest.xml:26:5-110
MERGED from [com.google.firebase:firebase-analytics-impl:16.2.3] C:\Users\user\.gradle\caches\transforms-1\files-1.1\firebase-analytics-impl-16.2.3.aar\dd01fbcba4b0ae3501e18b2fea8caba1\AndroidManifest.xml:26:5-110
	android:name
		ADDED from [com.google.firebase:firebase-analytics:16.0.5] C:\Users\user\.gradle\caches\transforms-1\files-1.1\firebase-analytics-16.0.5.aar\3236af78c5211b01373853356a5a85f9\AndroidManifest.xml:26:22-107
receiver#com.google.android.gms.measurement.AppMeasurementReceiver
ADDED from [com.google.firebase:firebase-analytics:16.0.5] C:\Users\user\.gradle\caches\transforms-1\files-1.1\firebase-analytics-16.0.5.aar\3236af78c5211b01373853356a5a85f9\AndroidManifest.xml:29:9-33:20
	android:enabled
		ADDED from [com.google.firebase:firebase-analytics:16.0.5] C:\Users\user\.gradle\caches\transforms-1\files-1.1\firebase-analytics-16.0.5.aar\3236af78c5211b01373853356a5a85f9\AndroidManifest.xml:31:13-35
	android:exported
		ADDED from [com.google.firebase:firebase-analytics:16.0.5] C:\Users\user\.gradle\caches\transforms-1\files-1.1\firebase-analytics-16.0.5.aar\3236af78c5211b01373853356a5a85f9\AndroidManifest.xml:32:13-37
	android:name
		ADDED from [com.google.firebase:firebase-analytics:16.0.5] C:\Users\user\.gradle\caches\transforms-1\files-1.1\firebase-analytics-16.0.5.aar\3236af78c5211b01373853356a5a85f9\AndroidManifest.xml:30:13-85
receiver#com.google.android.gms.measurement.AppMeasurementInstallReferrerReceiver
ADDED from [com.google.firebase:firebase-analytics:16.0.5] C:\Users\user\.gradle\caches\transforms-1\files-1.1\firebase-analytics-16.0.5.aar\3236af78c5211b01373853356a5a85f9\AndroidManifest.xml:34:9-42:20
MERGED from [com.google.firebase:firebase-analytics-impl:16.2.3] C:\Users\user\.gradle\caches\transforms-1\files-1.1\firebase-analytics-impl-16.2.3.aar\dd01fbcba4b0ae3501e18b2fea8caba1\AndroidManifest.xml:29:9-37:20
MERGED from [com.google.firebase:firebase-analytics-impl:16.2.3] C:\Users\user\.gradle\caches\transforms-1\files-1.1\firebase-analytics-impl-16.2.3.aar\dd01fbcba4b0ae3501e18b2fea8caba1\AndroidManifest.xml:29:9-37:20
	android:enabled
		ADDED from [com.google.firebase:firebase-analytics:16.0.5] C:\Users\user\.gradle\caches\transforms-1\files-1.1\firebase-analytics-16.0.5.aar\3236af78c5211b01373853356a5a85f9\AndroidManifest.xml:36:13-35
	android:exported
		ADDED from [com.google.firebase:firebase-analytics:16.0.5] C:\Users\user\.gradle\caches\transforms-1\files-1.1\firebase-analytics-16.0.5.aar\3236af78c5211b01373853356a5a85f9\AndroidManifest.xml:37:13-36
	android:permission
		ADDED from [com.google.firebase:firebase-analytics:16.0.5] C:\Users\user\.gradle\caches\transforms-1\files-1.1\firebase-analytics-16.0.5.aar\3236af78c5211b01373853356a5a85f9\AndroidManifest.xml:38:13-69
	android:name
		ADDED from [com.google.firebase:firebase-analytics:16.0.5] C:\Users\user\.gradle\caches\transforms-1\files-1.1\firebase-analytics-16.0.5.aar\3236af78c5211b01373853356a5a85f9\AndroidManifest.xml:35:13-100
intent-filter#com.android.vending.INSTALL_REFERRER
ADDED from [com.google.firebase:firebase-analytics:16.0.5] C:\Users\user\.gradle\caches\transforms-1\files-1.1\firebase-analytics-16.0.5.aar\3236af78c5211b01373853356a5a85f9\AndroidManifest.xml:39:13-41:29
action#com.android.vending.INSTALL_REFERRER
ADDED from [com.google.firebase:firebase-analytics:16.0.5] C:\Users\user\.gradle\caches\transforms-1\files-1.1\firebase-analytics-16.0.5.aar\3236af78c5211b01373853356a5a85f9\AndroidManifest.xml:40:17-79
	android:name
		ADDED from [com.google.firebase:firebase-analytics:16.0.5] C:\Users\user\.gradle\caches\transforms-1\files-1.1\firebase-analytics-16.0.5.aar\3236af78c5211b01373853356a5a85f9\AndroidManifest.xml:40:25-76
service#com.google.android.gms.measurement.AppMeasurementJobService
ADDED from [com.google.firebase:firebase-analytics:16.0.5] C:\Users\user\.gradle\caches\transforms-1\files-1.1\firebase-analytics-16.0.5.aar\3236af78c5211b01373853356a5a85f9\AndroidManifest.xml:48:9-52:72
	android:enabled
		ADDED from [com.google.firebase:firebase-analytics:16.0.5] C:\Users\user\.gradle\caches\transforms-1\files-1.1\firebase-analytics-16.0.5.aar\3236af78c5211b01373853356a5a85f9\AndroidManifest.xml:50:13-35
	android:exported
		ADDED from [com.google.firebase:firebase-analytics:16.0.5] C:\Users\user\.gradle\caches\transforms-1\files-1.1\firebase-analytics-16.0.5.aar\3236af78c5211b01373853356a5a85f9\AndroidManifest.xml:51:13-37
	android:permission
		ADDED from [com.google.firebase:firebase-analytics:16.0.5] C:\Users\user\.gradle\caches\transforms-1\files-1.1\firebase-analytics-16.0.5.aar\3236af78c5211b01373853356a5a85f9\AndroidManifest.xml:52:13-69
	android:name
		ADDED from [com.google.firebase:firebase-analytics:16.0.5] C:\Users\user\.gradle\caches\transforms-1\files-1.1\firebase-analytics-16.0.5.aar\3236af78c5211b01373853356a5a85f9\AndroidManifest.xml:49:13-87
uses-permission#com.google.android.c2dm.permission.RECEIVE
ADDED from [com.google.firebase:firebase-iid:17.0.4] C:\Users\user\.gradle\caches\transforms-1\files-1.1\firebase-iid-17.0.4.aar\ccc24ca30d78d8c9771d246b1ee57807\AndroidManifest.xml:26:5-82
	android:name
		ADDED from [com.google.firebase:firebase-iid:17.0.4] C:\Users\user\.gradle\caches\transforms-1\files-1.1\firebase-iid-17.0.4.aar\ccc24ca30d78d8c9771d246b1ee57807\AndroidManifest.xml:26:22-79
meta-data#com.google.firebase.components:com.google.firebase.iid.Registrar
ADDED from [com.google.firebase:firebase-iid:17.0.4] C:\Users\user\.gradle\caches\transforms-1\files-1.1\firebase-iid-17.0.4.aar\ccc24ca30d78d8c9771d246b1ee57807\AndroidManifest.xml:32:13-34:85
	android:value
		ADDED from [com.google.firebase:firebase-iid:17.0.4] C:\Users\user\.gradle\caches\transforms-1\files-1.1\firebase-iid-17.0.4.aar\ccc24ca30d78d8c9771d246b1ee57807\AndroidManifest.xml:34:17-82
	android:name
		ADDED from [com.google.firebase:firebase-iid:17.0.4] C:\Users\user\.gradle\caches\transforms-1\files-1.1\firebase-iid-17.0.4.aar\ccc24ca30d78d8c9771d246b1ee57807\AndroidManifest.xml:33:17-96
receiver#com.google.firebase.iid.FirebaseInstanceIdReceiver
ADDED from [com.google.firebase:firebase-iid:17.0.4] C:\Users\user\.gradle\caches\transforms-1\files-1.1\firebase-iid-17.0.4.aar\ccc24ca30d78d8c9771d246b1ee57807\AndroidManifest.xml:37:9-44:20
	android:exported
		ADDED from [com.google.firebase:firebase-iid:17.0.4] C:\Users\user\.gradle\caches\transforms-1\files-1.1\firebase-iid-17.0.4.aar\ccc24ca30d78d8c9771d246b1ee57807\AndroidManifest.xml:39:13-36
	android:permission
		ADDED from [com.google.firebase:firebase-iid:17.0.4] C:\Users\user\.gradle\caches\transforms-1\files-1.1\firebase-iid-17.0.4.aar\ccc24ca30d78d8c9771d246b1ee57807\AndroidManifest.xml:40:13-73
	android:name
		ADDED from [com.google.firebase:firebase-iid:17.0.4] C:\Users\user\.gradle\caches\transforms-1\files-1.1\firebase-iid-17.0.4.aar\ccc24ca30d78d8c9771d246b1ee57807\AndroidManifest.xml:38:13-78
intent-filter#com.google.android.c2dm.intent.RECEIVE
ADDED from [com.google.firebase:firebase-iid:17.0.4] C:\Users\user\.gradle\caches\transforms-1\files-1.1\firebase-iid-17.0.4.aar\ccc24ca30d78d8c9771d246b1ee57807\AndroidManifest.xml:41:13-43:29
action#com.google.android.c2dm.intent.RECEIVE
ADDED from [com.google.firebase:firebase-iid:17.0.4] C:\Users\user\.gradle\caches\transforms-1\files-1.1\firebase-iid-17.0.4.aar\ccc24ca30d78d8c9771d246b1ee57807\AndroidManifest.xml:42:17-81
	android:name
		ADDED from [com.google.firebase:firebase-iid:17.0.4] C:\Users\user\.gradle\caches\transforms-1\files-1.1\firebase-iid-17.0.4.aar\ccc24ca30d78d8c9771d246b1ee57807\AndroidManifest.xml:42:25-78
service#com.google.firebase.iid.FirebaseInstanceIdService
ADDED from [com.google.firebase:firebase-iid:17.0.4] C:\Users\user\.gradle\caches\transforms-1\files-1.1\firebase-iid-17.0.4.aar\ccc24ca30d78d8c9771d246b1ee57807\AndroidManifest.xml:50:9-56:19
	android:exported
		ADDED from [com.google.firebase:firebase-iid:17.0.4] C:\Users\user\.gradle\caches\transforms-1\files-1.1\firebase-iid-17.0.4.aar\ccc24ca30d78d8c9771d246b1ee57807\AndroidManifest.xml:52:13-36
	android:name
		ADDED from [com.google.firebase:firebase-iid:17.0.4] C:\Users\user\.gradle\caches\transforms-1\files-1.1\firebase-iid-17.0.4.aar\ccc24ca30d78d8c9771d246b1ee57807\AndroidManifest.xml:51:13-77
activity#com.google.android.gms.common.api.GoogleApiActivity
ADDED from [com.google.android.gms:play-services-base:16.0.1] C:\Users\user\.gradle\caches\transforms-1\files-1.1\play-services-base-16.0.1.aar\3f0d613d5baf263b8cfc1794013f2b4a\AndroidManifest.xml:23:9-26:75
	android:exported
		ADDED from [com.google.android.gms:play-services-base:16.0.1] C:\Users\user\.gradle\caches\transforms-1\files-1.1\play-services-base-16.0.1.aar\3f0d613d5baf263b8cfc1794013f2b4a\AndroidManifest.xml:25:13-37
	android:theme
		ADDED from [com.google.android.gms:play-services-base:16.0.1] C:\Users\user\.gradle\caches\transforms-1\files-1.1\play-services-base-16.0.1.aar\3f0d613d5baf263b8cfc1794013f2b4a\AndroidManifest.xml:26:13-72
	android:name
		ADDED from [com.google.android.gms:play-services-base:16.0.1] C:\Users\user\.gradle\caches\transforms-1\files-1.1\play-services-base-16.0.1.aar\3f0d613d5baf263b8cfc1794013f2b4a\AndroidManifest.xml:24:13-79
provider#com.google.firebase.provider.FirebaseInitProvider
ADDED from [com.google.firebase:firebase-common:16.0.3] C:\Users\user\.gradle\caches\transforms-1\files-1.1\firebase-common-16.0.3.aar\4551ec3546594dd8d1c4753b29872788\AndroidManifest.xml:10:9-14:39
	android:authorities
		ADDED from [com.google.firebase:firebase-common:16.0.3] C:\Users\user\.gradle\caches\transforms-1\files-1.1\firebase-common-16.0.3.aar\4551ec3546594dd8d1c4753b29872788\AndroidManifest.xml:12:13-72
	android:exported
		ADDED from [com.google.firebase:firebase-common:16.0.3] C:\Users\user\.gradle\caches\transforms-1\files-1.1\firebase-common-16.0.3.aar\4551ec3546594dd8d1c4753b29872788\AndroidManifest.xml:13:13-37
	android:initOrder
		ADDED from [com.google.firebase:firebase-common:16.0.3] C:\Users\user\.gradle\caches\transforms-1\files-1.1\firebase-common-16.0.3.aar\4551ec3546594dd8d1c4753b29872788\AndroidManifest.xml:14:13-36
	android:name
		ADDED from [com.google.firebase:firebase-common:16.0.3] C:\Users\user\.gradle\caches\transforms-1\files-1.1\firebase-common-16.0.3.aar\4551ec3546594dd8d1c4753b29872788\AndroidManifest.xml:11:13-77
meta-data#com.google.android.gms.version
ADDED from [com.google.android.gms:play-services-basement:16.1.0] C:\Users\user\.gradle\caches\transforms-1\files-1.1\play-services-basement-16.1.0.aar\5994aab45f01c7ef89f8302f5c4ab412\AndroidManifest.xml:23:9-25:69
	android:value
		ADDED from [com.google.android.gms:play-services-basement:16.1.0] C:\Users\user\.gradle\caches\transforms-1\files-1.1\play-services-basement-16.1.0.aar\5994aab45f01c7ef89f8302f5c4ab412\AndroidManifest.xml:25:13-66
	android:name
		ADDED from [com.google.android.gms:play-services-basement:16.1.0] C:\Users\user\.gradle\caches\transforms-1\files-1.1\play-services-basement-16.1.0.aar\5994aab45f01c7ef89f8302f5c4ab412\AndroidManifest.xml:24:13-58
meta-data#android.support.VERSION
ADDED from [com.android.support:support-v4:26.1.0] C:\Users\user\.gradle\caches\transforms-1\files-1.1\support-v4-26.1.0.aar\897c9d690feb9ddd4fe2d5216f4c8d83\AndroidManifest.xml:26:9-28:38
MERGED from [com.android.support:support-media-compat:26.1.0] C:\Users\user\.gradle\caches\transforms-1\files-1.1\support-media-compat-26.1.0.aar\2357aedf1fc2f5c8718d838d9597738a\AndroidManifest.xml:26:9-28:38
MERGED from [com.android.support:support-media-compat:26.1.0] C:\Users\user\.gradle\caches\transforms-1\files-1.1\support-media-compat-26.1.0.aar\2357aedf1fc2f5c8718d838d9597738a\AndroidManifest.xml:26:9-28:38
MERGED from [com.android.support:support-fragment:26.1.0] C:\Users\user\.gradle\caches\transforms-1\files-1.1\support-fragment-26.1.0.aar\656f6ad9e8dcea2e2a2f962a9bec8dbe\AndroidManifest.xml:26:9-28:38
MERGED from [com.android.support:support-fragment:26.1.0] C:\Users\user\.gradle\caches\transforms-1\files-1.1\support-fragment-26.1.0.aar\656f6ad9e8dcea2e2a2f962a9bec8dbe\AndroidManifest.xml:26:9-28:38
MERGED from [com.android.support:support-core-utils:26.1.0] C:\Users\user\.gradle\caches\transforms-1\files-1.1\support-core-utils-26.1.0.aar\641ea27d1b129720e7f52858e50a365c\AndroidManifest.xml:26:9-28:38
MERGED from [com.android.support:support-core-utils:26.1.0] C:\Users\user\.gradle\caches\transforms-1\files-1.1\support-core-utils-26.1.0.aar\641ea27d1b129720e7f52858e50a365c\AndroidManifest.xml:26:9-28:38
MERGED from [com.android.support:support-core-ui:26.1.0] C:\Users\user\.gradle\caches\transforms-1\files-1.1\support-core-ui-26.1.0.aar\c9329f040b5f8db35dc3b7ee0d2dcb62\AndroidManifest.xml:26:9-28:38
MERGED from [com.android.support:support-core-ui:26.1.0] C:\Users\user\.gradle\caches\transforms-1\files-1.1\support-core-ui-26.1.0.aar\c9329f040b5f8db35dc3b7ee0d2dcb62\AndroidManifest.xml:26:9-28:38
MERGED from [com.android.support:support-compat:26.1.0] C:\Users\user\.gradle\caches\transforms-1\files-1.1\support-compat-26.1.0.aar\1bfeb849a2a3e447ceb0a9cc55641f10\AndroidManifest.xml:26:9-28:38
MERGED from [com.android.support:support-compat:26.1.0] C:\Users\user\.gradle\caches\transforms-1\files-1.1\support-compat-26.1.0.aar\1bfeb849a2a3e447ceb0a9cc55641f10\AndroidManifest.xml:26:9-28:38
	android:value
		ADDED from [com.android.support:support-v4:26.1.0] C:\Users\user\.gradle\caches\transforms-1\files-1.1\support-v4-26.1.0.aar\897c9d690feb9ddd4fe2d5216f4c8d83\AndroidManifest.xml:28:13-35
	android:name
		ADDED from [com.android.support:support-v4:26.1.0] C:\Users\user\.gradle\caches\transforms-1\files-1.1\support-v4-26.1.0.aar\897c9d690feb9ddd4fe2d5216f4c8d83\AndroidManifest.xml:27:13-51
meta-data#android.arch.lifecycle.VERSION
ADDED from [android.arch.lifecycle:runtime:1.0.0] C:\Users\user\.gradle\caches\transforms-1\files-1.1\runtime-1.0.0.aar\5db221d472fb81a752475a53cb963055\AndroidManifest.xml:25:9-27:47
	android:value
		ADDED from [android.arch.lifecycle:runtime:1.0.0] C:\Users\user\.gradle\caches\transforms-1\files-1.1\runtime-1.0.0.aar\5db221d472fb81a752475a53cb963055\AndroidManifest.xml:27:13-44
	android:name
		ADDED from [android.arch.lifecycle:runtime:1.0.0] C:\Users\user\.gradle\caches\transforms-1\files-1.1\runtime-1.0.0.aar\5db221d472fb81a752475a53cb963055\AndroidManifest.xml:26:13-58
